(export (version D)
  (design
    (source "/home/luiz/LAAS/9-2017-2018/1-Research/2-Projects-Studies/1-Projects/0-Power Module/2-Hardware/Version4.2/Power_converter_V4.2.sch")
    (date "sam. 07 avril 2018 11:47:24 CEST")
    (tool "Eeschema 4.0.7-e2-6376~58~ubuntu16.04.1")
    (sheet (number 1) (name /) (tstamps /)
      (title_block
        (title)
        (company)
        (rev)
        (date "20 apr 2016")
        (source Power_converter_V4.2.sch)
        (comment (number 1) (value ""))
        (comment (number 2) (value ""))
        (comment (number 3) (value ""))
        (comment (number 4) (value ""))))
    (sheet (number 2) (name "/Microcontroller Block/") (tstamps /57067DBF/)
      (title_block
        (title)
        (company)
        (rev)
        (date "20 apr 2016")
        (source microcontroller_block.sch)
        (comment (number 1) (value ""))
        (comment (number 2) (value ""))
        (comment (number 3) (value ""))
        (comment (number 4) (value ""))))
    (sheet (number 3) (name "/External Connection Block/") (tstamps /57067DFF/)
      (title_block
        (title)
        (company)
        (rev)
        (date)
        (source external_connection_block.sch)
        (comment (number 1) (value ""))
        (comment (number 2) (value ""))
        (comment (number 3) (value ""))
        (comment (number 4) (value ""))))
    (sheet (number 4) (name "/Feeder Block/") (tstamps /57067DF4/)
      (title_block
        (title)
        (company)
        (rev)
        (date "20 apr 2016")
        (source feeder_block.sch)
        (comment (number 1) (value ""))
        (comment (number 2) (value ""))
        (comment (number 3) (value ""))
        (comment (number 4) (value ""))))
    (sheet (number 5) (name "/Measurement Block/") (tstamps /57067DAC/)
      (title_block
        (title)
        (company)
        (rev)
        (date)
        (source measurement_block.sch)
        (comment (number 1) (value ""))
        (comment (number 2) (value ""))
        (comment (number 3) (value ""))
        (comment (number 4) (value ""))))
    (sheet (number 6) (name /power_block/) (tstamps /59E1131A/)
      (title_block
        (title)
        (company)
        (rev)
        (date "20 apr 2016")
        (source power_block.sch)
        (comment (number 1) (value ""))
        (comment (number 2) (value ""))
        (comment (number 3) (value ""))
        (comment (number 4) (value ""))))
    (sheet (number 7) (name /Sheet59DD8F50/) (tstamps /59DD8F51/)
      (title_block
        (title)
        (company)
        (rev)
        (date "20 apr 2016")
        (source driver_block.sch)
        (comment (number 1) (value ""))
        (comment (number 2) (value ""))
        (comment (number 3) (value ""))
        (comment (number 4) (value "")))))
  (components
    (comp (ref SH1)
      (value ARDUINO_NANO)
      (footprint shield_arduino_footprint:ARDUINO_NANO_2_CONTOUR_trous_1MM!)
      (libsource (lib quad_shottky_x2) (part ARDUINO_NANO-RESCUE-Power_converter_V4))
      (sheetpath (names "/Microcontroller Block/") (tstamps /57067DBF/))
      (tstamp 59529230))
    (comp (ref Tu1)
      (value CON1X1)
      (footprint Pin_Headers:Pin_Header_Straight_1x01_Pitch2.54mm)
      (libsource (lib digital-cache) (part CONN_01X01))
      (sheetpath (names "/Microcontroller Block/") (tstamps /57067DBF/))
      (tstamp 5ABED38F))
    (comp (ref Tu2)
      (value CON1X1)
      (footprint Pin_Headers:Pin_Header_Straight_1x01_Pitch2.54mm)
      (libsource (lib digital-cache) (part CONN_01X01))
      (sheetpath (names "/Microcontroller Block/") (tstamps /57067DBF/))
      (tstamp 5AC4E555))
    (comp (ref MOD1)
      (value Module_TTL_RS485)
      (footprint shield_arduino_footprint:ModuleTTLRS485)
      (libsource (lib quad_shottky_x2) (part Module_TTL_RS485-RESCUE-Power_converter_V4))
      (sheetpath (names "/External Connection Block/") (tstamps /57067DFF/))
      (tstamp 59777A6E))
    (comp (ref CH6)
      (value 20u)
      (footprint Capacitors_THT:CP_Radial_D5.0mm_P2.50mm)
      (libsource (lib device) (part CP))
      (sheetpath (names "/Feeder Block/") (tstamps /57067DF4/))
      (tstamp 59765087))
    (comp (ref RH2)
      (value 10k)
      (footprint Resistors_THT:R_Axial_DIN0204_L3.6mm_D1.6mm_P5.08mm_Horizontal)
      (libsource (lib device) (part R))
      (sheetpath (names "/Feeder Block/") (tstamps /57067DF4/))
      (tstamp 597664C7))
    (comp (ref LDH2)
      (value LED)
      (footprint LEDs:LED_D3.0mm)
      (libsource (lib measurement_chain_LV-cache) (part LED-RESCUE-Power_converter_V4))
      (sheetpath (names "/Feeder Block/") (tstamps /57067DF4/))
      (tstamp 597664CD))
    (comp (ref Uf1)
      (value LMR16010)
      (footprint test:SOIC-8-1EP_3.9x4.9mm_Pitch1.27mm_thermal++)
      (datasheet http://www.ti.com/lit/ds/symlink/lmr16010.pdf)
      (libsource (lib lm2672) (part LMR16010))
      (sheetpath (names "/Feeder Block/") (tstamps /57067DF4/))
      (tstamp 5976D566))
    (comp (ref Cb1)
      (value 100n)
      (footprint Capacitors_THT:C_Rect_L7.0mm_W2.0mm_P5.00mm)
      (libsource (lib device) (part C))
      (sheetpath (names "/Feeder Block/") (tstamps /57067DF4/))
      (tstamp 5976EAE8))
    (comp (ref Ls1)
      (value 33u)
      (footprint digital:inductance_murata_1200LRS)
      (fields
        (field (name Notes) "Murata family 1200LRS"))
      (libsource (lib device) (part L))
      (sheetpath (names "/Feeder Block/") (tstamps /57067DF4/))
      (tstamp 5976F377))
    (comp (ref Ds1)
      (value MBR2H100SFT3G)
      (footprint Diodes_SMD:D_SOD-123)
      (datasheet https://docs-emea.rs-online.com/webdocs/1221/0900766b812212a8.pdf)
      (fields
        (field (name "Ref. RS") 781-5650))
      (libsource (lib device) (part D_Schottky))
      (sheetpath (names "/Feeder Block/") (tstamps /57067DF4/))
      (tstamp 5976F8F9))
    (comp (ref Rt2)
      (value 10k)
      (footprint Resistors_THT:R_Axial_DIN0204_L3.6mm_D1.6mm_P5.08mm_Horizontal)
      (libsource (lib device) (part R))
      (sheetpath (names "/Feeder Block/") (tstamps /57067DF4/))
      (tstamp 597713E8))
    (comp (ref Rfbt1)
      (value 150k)
      (footprint Resistors_THT:R_Axial_DIN0204_L3.6mm_D1.6mm_P5.08mm_Horizontal)
      (libsource (lib device) (part R))
      (sheetpath (names "/Feeder Block/") (tstamps /57067DF4/))
      (tstamp 59771C86))
    (comp (ref Uf3)
      (value TME/CRE)
      (footprint test:TME_0505s)
      (datasheet http://www.tme.eu/en/Document/ecc45a2bcbf6e1314ca25a1f4efc1d56/TME-SERIES-EN.pdf)
      (libsource (lib feeder_block-cache) (part TME/CRE))
      (sheetpath (names "/Feeder Block/") (tstamps /57067DF4/))
      (tstamp 59777E0C))
    (comp (ref RL1)
      (value 10k)
      (footprint Resistors_THT:R_Axial_DIN0204_L3.6mm_D1.6mm_P5.08mm_Horizontal)
      (libsource (lib device) (part R))
      (sheetpath (names "/Feeder Block/") (tstamps /57067DF4/))
      (tstamp 572042AC))
    (comp (ref LDL1)
      (value LED)
      (footprint LEDs:LED_D3.0mm)
      (libsource (lib measurement_chain_LV-cache) (part LED-RESCUE-Power_converter_V4))
      (sheetpath (names "/Feeder Block/") (tstamps /57067DF4/))
      (tstamp 595BC656))
    (comp (ref PH1)
      (value 10k)
      (footprint Potentiometers:Potentiometer_Trimmer_Bourns_3296Y)
      (libsource (lib measurement_chain_LV-cache) (part POT-RESCUE-Power_converter_V4))
      (sheetpath (names "/Feeder Block/") (tstamps /57067DF4/))
      (tstamp 59787B66))
    (comp (ref CH1)
      (value 20u)
      (footprint Capacitors_THT:CP_Radial_D5.0mm_P2.50mm)
      (libsource (lib device) (part CP))
      (sheetpath (names "/Feeder Block/") (tstamps /57067DF4/))
      (tstamp 5978D844))
    (comp (ref CH2)
      (value 4u7)
      (footprint Capacitors_THT:C_Rect_L7.0mm_W2.0mm_P5.00mm)
      (libsource (lib device) (part C))
      (sheetpath (names "/Feeder Block/") (tstamps /57067DF4/))
      (tstamp 5978E38C))
    (comp (ref LDH1)
      (value LED)
      (footprint LEDs:LED_D3.0mm)
      (libsource (lib measurement_chain_LV-cache) (part LED-RESCUE-Power_converter_V4))
      (sheetpath (names "/Feeder Block/") (tstamps /57067DF4/))
      (tstamp 599EACA5))
    (comp (ref Rld2)
      (value 10k)
      (footprint Resistors_THT:R_Axial_DIN0204_L3.6mm_D1.6mm_P5.08mm_Horizontal)
      (libsource (lib device) (part R))
      (sheetpath (names "/Feeder Block/") (tstamps /57067DF4/))
      (tstamp 599EB330))
    (comp (ref Tf1)
      (value CON1X1)
      (footprint Pin_Headers:Pin_Header_Straight_1x01_Pitch2.54mm)
      (libsource (lib digital-cache) (part CONN_01X01))
      (sheetpath (names "/Feeder Block/") (tstamps /57067DF4/))
      (tstamp 599F0400))
    (comp (ref Tf2)
      (value CON1X1)
      (footprint Pin_Headers:Pin_Header_Straight_1x01_Pitch2.54mm)
      (libsource (lib digital-cache) (part CONN_01X01))
      (sheetpath (names "/Feeder Block/") (tstamps /57067DF4/))
      (tstamp 599F047A))
    (comp (ref Tf3)
      (value CON1X1)
      (footprint Pin_Headers:Pin_Header_Straight_1x01_Pitch2.54mm)
      (libsource (lib digital-cache) (part CONN_01X01))
      (sheetpath (names "/Feeder Block/") (tstamps /57067DF4/))
      (tstamp 599F0516))
    (comp (ref Cld1)
      (value 4u7)
      (footprint Capacitors_THT:C_Rect_L7.0mm_W2.0mm_P5.00mm)
      (libsource (lib device) (part C_Small))
      (sheetpath (names "/Feeder Block/") (tstamps /57067DF4/))
      (tstamp 59E04A8C))
    (comp (ref Cld2)
      (value 4u7)
      (footprint Capacitors_THT:C_Rect_L7.0mm_W2.0mm_P5.00mm)
      (libsource (lib device) (part C_Small))
      (sheetpath (names "/Feeder Block/") (tstamps /57067DF4/))
      (tstamp 59E04B25))
    (comp (ref Qln1)
      (value BUX85)
      (footprint TO_SOT_Packages_THT:TO-220_Neutral123_Vertical_LargePads)
      (datasheet http://www.onsemi.com/pub/Collateral/BUX85-D.PDF)
      (fields
        (field (name "Ref. RS") ??))
      (libsource (lib device) (part Q_NPN_BCE))
      (sheetpath (names "/Feeder Block/") (tstamps /57067DF4/))
      (tstamp 5ABDADD3))
    (comp (ref Rln2)
      (value 150k)
      (footprint Resistors_THT:R_Axial_DIN0204_L3.6mm_D1.6mm_P5.08mm_Horizontal)
      (libsource (lib device) (part R))
      (sheetpath (names "/Feeder Block/") (tstamps /57067DF4/))
      (tstamp 5ABDAF2D))
    (comp (ref Dln1)
      (value MMSZ15T1G)
      (footprint Diodes_SMD:D_SOD-123)
      (datasheet https://docs-emea.rs-online.com/webdocs/14af/0900766b814af7dd.pdf)
      (fields
        (field (name Component) MMSZ15T1G)
        (field (name "Ref. RS") 544-9810))
      (libsource (lib digital-cache) (part ZENER))
      (sheetpath (names "/Feeder Block/") (tstamps /57067DF4/))
      (tstamp 5ABDB116))
    (comp (ref Tf4)
      (value CON1X1)
      (footprint Pin_Headers:Pin_Header_Straight_1x01_Pitch2.54mm)
      (libsource (lib digital-cache) (part CONN_01X01))
      (sheetpath (names "/Feeder Block/") (tstamps /57067DF4/))
      (tstamp 5ABEB770))
    (comp (ref Tf5)
      (value CON1X1)
      (footprint Pin_Headers:Pin_Header_Straight_1x01_Pitch2.54mm)
      (libsource (lib digital-cache) (part CONN_01X01))
      (sheetpath (names "/Feeder Block/") (tstamps /57067DF4/))
      (tstamp 5ABEBB27))
    (comp (ref Rld1)
      (value 22)
      (footprint Resistors_THT:R_Axial_DIN0207_L6.3mm_D2.5mm_P10.16mm_Horizontal)
      (fields
        (field (name "RS ref.") ??))
      (libsource (lib device) (part R))
      (sheetpath (names "/Feeder Block/") (tstamps /57067DF4/))
      (tstamp 5ABEB100))
    (comp (ref Uf2)
      (value BA50BC0FP-E2)
      (footprint TO_SOT_Packages_SMD:TO-252-2Lead)
      (datasheet https://docs-emea.rs-online.com/webdocs/161b/0900766b8161bc23.pdf)
      (fields
        (field (name "RS ref.") 167-7335))
      (libsource (lib digital) (part BA50BC0FP-E2))
      (sheetpath (names "/Feeder Block/") (tstamps /57067DF4/))
      (tstamp 5AC493E3))
    (comp (ref Rt3)
      (value 10k)
      (footprint Resistors_THT:R_Axial_DIN0204_L3.6mm_D1.6mm_P5.08mm_Horizontal)
      (libsource (lib device) (part R))
      (sheetpath (names "/Feeder Block/") (tstamps /57067DF4/))
      (tstamp 5AC4F040))
    (comp (ref Rt1)
      (value 10k)
      (footprint Resistors_THT:R_Axial_DIN0204_L3.6mm_D1.6mm_P5.08mm_Horizontal)
      (libsource (lib device) (part R))
      (sheetpath (names "/Feeder Block/") (tstamps /57067DF4/))
      (tstamp 5AC4F0C9))
    (comp (ref Rpu1)
      (value 10k)
      (footprint Resistors_THT:R_Axial_DIN0204_L3.6mm_D1.6mm_P5.08mm_Horizontal)
      (libsource (lib device) (part R))
      (sheetpath (names "/Feeder Block/") (tstamps /57067DF4/))
      (tstamp 5AC4FE4C))
    (comp (ref Dln2)
      (value MBR2H100SFT3G)
      (footprint Diodes_SMD:D_SOD-123)
      (datasheet https://docs-emea.rs-online.com/webdocs/1221/0900766b812212a8.pdf)
      (fields
        (field (name "Ref. RS") 781-5650))
      (libsource (lib device) (part D_Schottky))
      (sheetpath (names "/Feeder Block/") (tstamps /57067DF4/))
      (tstamp 5AC52F51))
    (comp (ref Rln1)
      (value 150k)
      (footprint Resistors_THT:R_Axial_DIN0204_L3.6mm_D1.6mm_P5.08mm_Horizontal)
      (libsource (lib device) (part R))
      (sheetpath (names "/Feeder Block/") (tstamps /57067DF4/))
      (tstamp 5AC5594A))
    (comp (ref UADC1)
      (value MCP3208)
      (footprint Housings_SOIC:SOIC-16_3.9x9.9mm_Pitch1.27mm)
      (datasheet http://ww1.microchip.com/downloads/en/DeviceDoc/21298c.pdf)
      (libsource (lib Power_converter_V4-rescue) (part MCP3208-RESCUE-Power_converter_V4))
      (sheetpath (names "/Measurement Block/") (tstamps /57067DAC/))
      (tstamp 5975F2C8))
    (comp (ref Diso1)
      (value ISO7341C)
      (footprint SMD_Packages:SO-16-W)
      (datasheet http://www.ti.com/lit/ds/symlink/iso7340c.pdf)
      (libsource (lib texas) (part ISO7341C))
      (sheetpath (names "/Measurement Block/") (tstamps /57067DAC/))
      (tstamp 5975F2CF))
    (comp (ref Rg1)
      (value 10k)
      (footprint Resistors_THT:R_Axial_DIN0204_L3.6mm_D1.6mm_P5.08mm_Horizontal)
      (libsource (lib device) (part R))
      (sheetpath (names "/Measurement Block/") (tstamps /57067DAC/))
      (tstamp 5975FBC8))
    (comp (ref Cf1)
      (value 100n)
      (footprint Capacitors_THT:C_Rect_L7.0mm_W2.0mm_P5.00mm)
      (libsource (lib device) (part C))
      (sheetpath (names "/Measurement Block/") (tstamps /57067DAC/))
      (tstamp 5975FBE1))
    (comp (ref Rg3)
      (value 10k)
      (footprint Resistors_THT:R_Axial_DIN0204_L3.6mm_D1.6mm_P5.08mm_Horizontal)
      (libsource (lib device) (part R))
      (sheetpath (names "/Measurement Block/") (tstamps /57067DAC/))
      (tstamp 597603B8))
    (comp (ref Cf2)
      (value 100n)
      (footprint Capacitors_THT:C_Rect_L7.0mm_W2.0mm_P5.00mm)
      (libsource (lib device) (part C))
      (sheetpath (names "/Measurement Block/") (tstamps /57067DAC/))
      (tstamp 597603D1))
    (comp (ref Rf4)
      (value 150k)
      (footprint Resistors_THT:R_Axial_DIN0204_L3.6mm_D1.6mm_P5.08mm_Horizontal)
      (libsource (lib device) (part R))
      (sheetpath (names "/Measurement Block/") (tstamps /57067DAC/))
      (tstamp 597603D8))
    (comp (ref Rf1)
      (value 150k)
      (footprint Resistors_THT:R_Axial_DIN0204_L3.6mm_D1.6mm_P5.08mm_Horizontal)
      (libsource (lib device) (part R))
      (sheetpath (names "/Measurement Block/") (tstamps /57067DAC/))
      (tstamp 5975FBE8))
    (comp (ref TM1)
      (value CONN_01X01)
      (footprint Pin_Headers:Pin_Header_Straight_1x01_Pitch2.54mm)
      (libsource (lib digital-cache) (part CONN_01X01))
      (sheetpath (names "/Measurement Block/") (tstamps /57067DAC/))
      (tstamp 599F4D1D))
    (comp (ref TM2)
      (value CONN_01X01)
      (footprint Pin_Headers:Pin_Header_Straight_1x01_Pitch2.54mm)
      (libsource (lib digital-cache) (part CONN_01X01))
      (sheetpath (names "/Measurement Block/") (tstamps /57067DAC/))
      (tstamp 599F4E13))
    (comp (ref TM3)
      (value CONN_01X01)
      (footprint Pin_Headers:Pin_Header_Straight_1x01_Pitch2.54mm)
      (libsource (lib digital-cache) (part CONN_01X01))
      (sheetpath (names "/Measurement Block/") (tstamps /57067DAC/))
      (tstamp 599F4E96))
    (comp (ref TM4)
      (value CONN_01X01)
      (footprint Pin_Headers:Pin_Header_Straight_1x01_Pitch2.54mm)
      (libsource (lib digital-cache) (part CONN_01X01))
      (sheetpath (names "/Measurement Block/") (tstamps /57067DAC/))
      (tstamp 599F4F13))
    (comp (ref TM5)
      (value CONN_01X01)
      (footprint Pin_Headers:Pin_Header_Straight_1x01_Pitch2.54mm)
      (libsource (lib digital-cache) (part CONN_01X01))
      (sheetpath (names "/Measurement Block/") (tstamps /57067DAC/))
      (tstamp 599F4F9A))
    (comp (ref TM6)
      (value CONN_01X01)
      (footprint Pin_Headers:Pin_Header_Straight_1x01_Pitch2.54mm)
      (libsource (lib digital-cache) (part CONN_01X01))
      (sheetpath (names "/Measurement Block/") (tstamps /57067DAC/))
      (tstamp 599F5C5B))
    (comp (ref Cd6)
      (value 100n)
      (footprint Capacitors_THT:C_Rect_L7.0mm_W2.0mm_P5.00mm)
      (libsource (lib device) (part C_Small))
      (sheetpath (names "/Measurement Block/") (tstamps /57067DAC/))
      (tstamp 59B29B19))
    (comp (ref Cd7)
      (value 100n)
      (footprint Capacitors_THT:C_Rect_L7.0mm_W2.0mm_P5.00mm)
      (libsource (lib device) (part C_Small))
      (sheetpath (names "/Measurement Block/") (tstamps /57067DAC/))
      (tstamp 59B29BA0))
    (comp (ref Cd5)
      (value 100n)
      (footprint Capacitors_THT:C_Rect_L7.0mm_W2.0mm_P5.00mm)
      (libsource (lib device) (part C_Small))
      (sheetpath (names "/Measurement Block/") (tstamps /57067DAC/))
      (tstamp 59B2AF71))
    (comp (ref Cd3)
      (value 100n)
      (footprint Capacitors_THT:C_Rect_L7.0mm_W2.0mm_P5.00mm)
      (libsource (lib device) (part C_Small))
      (sheetpath (names "/Measurement Block/") (tstamps /57067DAC/))
      (tstamp 59B2B545))
    (comp (ref Cd2)
      (value 100n)
      (footprint Capacitors_THT:C_Rect_L7.0mm_W2.0mm_P5.00mm)
      (libsource (lib device) (part C_Small))
      (sheetpath (names "/Measurement Block/") (tstamps /57067DAC/))
      (tstamp 59B2BCAC))
    (comp (ref Cd1)
      (value 100n)
      (footprint Capacitors_THT:C_Rect_L7.0mm_W2.0mm_P5.00mm)
      (libsource (lib device) (part C_Small))
      (sheetpath (names "/Measurement Block/") (tstamps /57067DAC/))
      (tstamp 59B2BE95))
    (comp (ref Rg2)
      (value 150k)
      (footprint Resistors_THT:R_Axial_DIN0204_L3.6mm_D1.6mm_P5.08mm_Horizontal)
      (libsource (lib device) (part R))
      (sheetpath (names "/Measurement Block/") (tstamps /57067DAC/))
      (tstamp 5ABF3153))
    (comp (ref Rg4)
      (value 150k)
      (footprint Resistors_THT:R_Axial_DIN0204_L3.6mm_D1.6mm_P5.08mm_Horizontal)
      (libsource (lib device) (part R))
      (sheetpath (names "/Measurement Block/") (tstamps /57067DAC/))
      (tstamp 5ABF3932))
    (comp (ref U2)
      (value OPA2374)
      (footprint Housings_SOIC:SOIC-8_3.9x4.9mm_Pitch1.27mm)
      (datasheet http://www.ti.com/lit/ds/symlink/opa2374.pdf)
      (libsource (lib digital) (part OPA2374))
      (sheetpath (names "/Measurement Block/") (tstamps /57067DAC/))
      (tstamp 5ABFAC6C))
    (comp (ref U3)
      (value OPA2374)
      (footprint Housings_SOIC:SOIC-8_3.9x4.9mm_Pitch1.27mm)
      (datasheet http://www.ti.com/lit/ds/symlink/opa2374.pdf)
      (libsource (lib digital) (part OPA2374))
      (sheetpath (names "/Measurement Block/") (tstamps /57067DAC/))
      (tstamp 5ABFB0AA))
    (comp (ref U1)
      (value OPA374)
      (footprint Housings_SOIC:SOIC-8_3.9x4.9mm_Pitch1.27mm)
      (datasheet http://www.ti.com/lit/ds/symlink/opa2374.pdf)
      (libsource (lib digital) (part OPA374))
      (sheetpath (names "/Measurement Block/") (tstamps /57067DAC/))
      (tstamp 5ABFBCF2))
    (comp (ref U4)
      (value OPA374)
      (footprint Housings_SOIC:SOIC-8_3.9x4.9mm_Pitch1.27mm)
      (datasheet http://www.ti.com/lit/ds/symlink/opa2374.pdf)
      (libsource (lib digital) (part OPA374))
      (sheetpath (names "/Measurement Block/") (tstamps /57067DAC/))
      (tstamp 5ABFC1E0))
    (comp (ref Cd4)
      (value 100n)
      (footprint Capacitors_THT:C_Rect_L7.0mm_W2.0mm_P5.00mm)
      (libsource (lib device) (part C_Small))
      (sheetpath (names "/Measurement Block/") (tstamps /57067DAC/))
      (tstamp 5ABFCE63))
    (comp (ref Ref1)
      (value MCP1541)
      (footprint TO_SOT_Packages_THT:TO-92_Inline_Narrow_Oval)
      (datasheet http://ww1.microchip.com/downloads/en/DeviceDoc/21653C.pdf)
      (fields
        (field (name "Ref. RS") ?))
      (libsource (lib digital) (part MCP1541))
      (sheetpath (names "/Measurement Block/") (tstamps /57067DAC/))
      (tstamp 5ABFE4F2))
    (comp (ref Rof2)
      (value 150k)
      (footprint Resistors_THT:R_Axial_DIN0204_L3.6mm_D1.6mm_P5.08mm_Horizontal)
      (libsource (lib device) (part R))
      (sheetpath (names "/Measurement Block/") (tstamps /57067DAC/))
      (tstamp 5AC0081B))
    (comp (ref Pof1)
      (value 10k)
      (footprint Potentiometers:Potentiometer_Bourns_3296Y_3-8Zoll_Angular_ScrewUp)
      (libsource (lib measurement_chain_LV-cache) (part POT-RESCUE-Power_converter_V4))
      (sheetpath (names "/Measurement Block/") (tstamps /57067DAC/))
      (tstamp 5AC019F0))
    (comp (ref TM7)
      (value CONN_01X01)
      (footprint Pin_Headers:Pin_Header_Straight_1x01_Pitch2.54mm)
      (libsource (lib digital-cache) (part CONN_01X01))
      (sheetpath (names "/Measurement Block/") (tstamps /57067DAC/))
      (tstamp 5AC4F865))
    (comp (ref Ris2)
      (value 10k)
      (footprint Resistors_THT:R_Axial_DIN0204_L3.6mm_D1.6mm_P5.08mm_Horizontal)
      (libsource (lib device) (part R))
      (sheetpath (names "/Measurement Block/") (tstamps /57067DAC/))
      (tstamp 5AC50453))
    (comp (ref Ris4)
      (value 10k)
      (footprint Resistors_THT:R_Axial_DIN0204_L3.6mm_D1.6mm_P5.08mm_Horizontal)
      (libsource (lib device) (part R))
      (sheetpath (names "/Measurement Block/") (tstamps /57067DAC/))
      (tstamp 5AC52191))
    (comp (ref Rf2)
      (value 150k)
      (footprint Resistors_THT:R_Axial_DIN0204_L3.6mm_D1.6mm_P5.08mm_Horizontal)
      (libsource (lib device) (part R))
      (sheetpath (names "/Measurement Block/") (tstamps /57067DAC/))
      (tstamp 5AC53050))
    (comp (ref Rf3)
      (value 150k)
      (footprint Resistors_THT:R_Axial_DIN0204_L3.6mm_D1.6mm_P5.08mm_Horizontal)
      (libsource (lib device) (part R))
      (sheetpath (names "/Measurement Block/") (tstamps /57067DAC/))
      (tstamp 5AC5351E))
    (comp (ref Rof1)
      (value 150k)
      (footprint Resistors_THT:R_Axial_DIN0204_L3.6mm_D1.6mm_P5.08mm_Horizontal)
      (libsource (lib device) (part R))
      (sheetpath (names "/Measurement Block/") (tstamps /57067DAC/))
      (tstamp 5AC56515))
    (comp (ref Ris1)
      (value 10k)
      (footprint Resistors_THT:R_Axial_DIN0204_L3.6mm_D1.6mm_P5.08mm_Horizontal)
      (libsource (lib device) (part R))
      (sheetpath (names "/Measurement Block/") (tstamps /57067DAC/))
      (tstamp 5AC5BAF0))
    (comp (ref Ris3)
      (value 10k)
      (footprint Resistors_THT:R_Axial_DIN0204_L3.6mm_D1.6mm_P5.08mm_Horizontal)
      (libsource (lib device) (part R))
      (sheetpath (names "/Measurement Block/") (tstamps /57067DAC/))
      (tstamp 5AC5D139))
    (comp (ref Cd8)
      (value 100n)
      (footprint Capacitors_THT:C_Rect_L7.0mm_W2.0mm_P5.00mm)
      (libsource (lib device) (part C_Small))
      (sheetpath (names "/Measurement Block/") (tstamps /57067DAC/))
      (tstamp 5AC60CB1))
    (comp (ref Cd9)
      (value 4u7)
      (footprint Capacitors_THT:C_Rect_L7.0mm_W2.0mm_P5.00mm)
      (libsource (lib device) (part C))
      (sheetpath (names "/Measurement Block/") (tstamps /57067DAC/))
      (tstamp 5AC64277))
    (comp (ref MH1)
      (value FDPF39N20)
      (footprint test:TO-220_Horizontal_inversé)
      (libsource (lib Power_converter_V4-rescue) (part IRF540N-RESCUE-Power_converter_V4))
      (sheetpath (names /power_block/) (tstamps /59E1131A/))
      (tstamp 57304D53))
    (comp (ref ML1)
      (value FDPF39N20)
      (footprint test:TO-220_Horizontal_inversé)
      (libsource (lib Power_converter_V4-rescue) (part IRF540N-RESCUE-Power_converter_V4))
      (sheetpath (names /power_block/) (tstamps /59E1131A/))
      (tstamp 573050C4))
    (comp (ref RM1)
      (value 2R2)
      (footprint Resistors_THT:R_Axial_DIN0204_L3.6mm_D1.6mm_P5.08mm_Horizontal)
      (libsource (lib device) (part R))
      (sheetpath (names /power_block/) (tstamps /59E1131A/))
      (tstamp 592DA79D))
    (comp (ref RM2)
      (value 2R2)
      (footprint Resistors_THT:R_Axial_DIN0204_L3.6mm_D1.6mm_P5.08mm_Horizontal)
      (libsource (lib device) (part R))
      (sheetpath (names /power_block/) (tstamps /59E1131A/))
      (tstamp 592DAAA9))
    (comp (ref L1)
      (value "MURATA 14xx")
      (footprint 7805:MURATA_Inductor_Big)
      (datasheet https://www.murata-ps.com/data/magnetics/kmp_1400.pdf)
      (fields
        (field (name "Ref. RS") ??))
      (libsource (lib device) (part L))
      (sheetpath (names /power_block/) (tstamps /59E1131A/))
      (tstamp 592DC284))
    (comp (ref CPL2)
      (value C)
      (footprint Capacitors_THT:CP_Radial_D18.0mm_P7.50mm)
      (libsource (lib device) (part CP1))
      (sheetpath (names /power_block/) (tstamps /59E1131A/))
      (tstamp 592EA0B9))
    (comp (ref RVL1)
      (value 150K)
      (footprint Resistors_THT:R_Axial_DIN0204_L3.6mm_D1.6mm_P5.08mm_Horizontal)
      (libsource (lib device) (part R))
      (sheetpath (names /power_block/) (tstamps /59E1131A/))
      (tstamp 592EA443))
    (comp (ref RVL2)
      (value 10k)
      (footprint Resistors_THT:R_Axial_DIN0204_L3.6mm_D1.6mm_P5.08mm_Horizontal)
      (libsource (lib device) (part R))
      (sheetpath (names /power_block/) (tstamps /59E1131A/))
      (tstamp 592EA4CD))
    (comp (ref RVH3)
      (value 10k)
      (footprint Resistors_THT:R_Axial_DIN0204_L3.6mm_D1.6mm_P5.08mm_Horizontal)
      (libsource (lib device) (part R))
      (sheetpath (names /power_block/) (tstamps /59E1131A/))
      (tstamp 592ED905))
    (comp (ref RVH1)
      (value 150k)
      (footprint Resistors_THT:R_Axial_DIN0204_L3.6mm_D1.6mm_P5.08mm_Horizontal)
      (libsource (lib device) (part R))
      (sheetpath (names /power_block/) (tstamps /59E1131A/))
      (tstamp 592ED98E))
    (comp (ref CNH1)
      (value High)
      (footprint test:PhoenixContact_FFKDS-V1-5.08_02x7.62mm)
      (libsource (lib quad_shottky_x2) (part CONN_01X02-RESCUE-Power_converter_V4))
      (sheetpath (names /power_block/) (tstamps /59E1131A/))
      (tstamp 59301D89))
    (comp (ref S1)
      (value LM35DZ)
      (footprint TO_SOT_Packages_THT:TO-92_Inline_Wide)
      (datasheet http://www.ti.com/lit/ds/symlink/lm35.pdf)
      (libsource (lib sensors) (part LM35-LP))
      (sheetpath (names /power_block/) (tstamps /59E1131A/))
      (tstamp 595B64EF))
    (comp (ref CNL1)
      (value Low)
      (footprint test:PhoenixContact_FFKDS-V1-5.08_02x7.62mm)
      (libsource (lib quad_shottky_x2) (part CONN_01X02-RESCUE-Power_converter_V4))
      (sheetpath (names /power_block/) (tstamps /59E1131A/))
      (tstamp 595D128A))
    (comp (ref Cdt1)
      (value 100n)
      (footprint Capacitors_THT:C_Rect_L7.0mm_W2.0mm_P5.00mm)
      (libsource (lib device) (part C))
      (sheetpath (names /power_block/) (tstamps /59E1131A/))
      (tstamp 596E2E43))
    (comp (ref CPL1)
      (value C)
      (footprint Capacitors_THT:CP_Radial_D18.0mm_P7.50mm)
      (libsource (lib device) (part CP1))
      (sheetpath (names /power_block/) (tstamps /59E1131A/))
      (tstamp 599FEEC6))
    (comp (ref CPL3)
      (value C)
      (footprint Capacitors_THT:CP_Radial_D18.0mm_P7.50mm)
      (libsource (lib device) (part CP1))
      (sheetpath (names /power_block/) (tstamps /59E1131A/))
      (tstamp 599FF056))
    (comp (ref CPL4)
      (value C)
      (footprint Capacitors_THT:CP_Radial_D18.0mm_P7.50mm)
      (libsource (lib device) (part CP1))
      (sheetpath (names /power_block/) (tstamps /59E1131A/))
      (tstamp 599FF0E4))
    (comp (ref RiH1)
      (value 0.04)
      (footprint test:R_Axial_DIN0207_L6.3mm_D2.5mm_P15.24mm_Horizontal_1.2mm_drill)
      (datasheet https://docs-emea.rs-online.com/webdocs/0496/0900766b80496a3c.pdf)
      (libsource (lib device) (part R))
      (sheetpath (names /power_block/) (tstamps /59E1131A/))
      (tstamp 5ABE4E12))
    (comp (ref RiH2)
      (value 0.04)
      (footprint test:R_Axial_DIN0207_L6.3mm_D2.5mm_P15.24mm_Horizontal_1.2mm_drill)
      (datasheet https://docs-emea.rs-online.com/webdocs/0496/0900766b80496a3c.pdf)
      (libsource (lib device) (part R))
      (sheetpath (names /power_block/) (tstamps /59E1131A/))
      (tstamp 5ABE4E1B))
    (comp (ref RiH3)
      (value 0.04)
      (footprint test:R_Axial_DIN0207_L6.3mm_D2.5mm_P15.24mm_Horizontal_1.2mm_drill)
      (datasheet https://docs-emea.rs-online.com/webdocs/0496/0900766b80496a3c.pdf)
      (libsource (lib device) (part R))
      (sheetpath (names /power_block/) (tstamps /59E1131A/))
      (tstamp 5ABE4E21))
    (comp (ref RiL1)
      (value 0.04)
      (footprint test:R_Axial_DIN0207_L6.3mm_D2.5mm_P15.24mm_Horizontal_1.2mm_drill)
      (datasheet https://docs-emea.rs-online.com/webdocs/0496/0900766b80496a3c.pdf)
      (fields
        (field (name "Ref. RS") 487-9131))
      (libsource (lib device) (part R))
      (sheetpath (names /power_block/) (tstamps /59E1131A/))
      (tstamp 5ABE679F))
    (comp (ref RiL2)
      (value 0.04)
      (footprint test:R_Axial_DIN0207_L6.3mm_D2.5mm_P15.24mm_Horizontal_1.2mm_drill)
      (datasheet https://docs-emea.rs-online.com/webdocs/0496/0900766b80496a3c.pdf)
      (libsource (lib device) (part R))
      (sheetpath (names /power_block/) (tstamps /59E1131A/))
      (tstamp 5ABE67A5))
    (comp (ref RiL3)
      (value 0.04)
      (footprint test:R_Axial_DIN0207_L6.3mm_D2.5mm_P15.24mm_Horizontal_1.2mm_drill)
      (datasheet https://docs-emea.rs-online.com/webdocs/0496/0900766b80496a3c.pdf)
      (libsource (lib device) (part R))
      (sheetpath (names /power_block/) (tstamps /59E1131A/))
      (tstamp 5ABE67AB))
    (comp (ref CVL1)
      (value 100n)
      (footprint Capacitors_THT:C_Rect_L7.0mm_W2.0mm_P5.00mm)
      (libsource (lib device) (part C))
      (sheetpath (names /power_block/) (tstamps /59E1131A/))
      (tstamp 5ABF0E7A))
    (comp (ref CVH1)
      (value 100n)
      (footprint Capacitors_THT:C_Rect_L7.0mm_W2.0mm_P5.00mm)
      (libsource (lib device) (part C))
      (sheetpath (names /power_block/) (tstamps /59E1131A/))
      (tstamp 5ABF19EC))
    (comp (ref RVH2)
      (value 150k)
      (footprint Resistors_THT:R_Axial_DIN0204_L3.6mm_D1.6mm_P5.08mm_Horizontal)
      (libsource (lib device) (part R))
      (sheetpath (names /power_block/) (tstamps /59E1131A/))
      (tstamp 5AC58938))
    (comp (ref DL1)
      (value MBR20200)
      (footprint test:TO-220_Horizontal_inversé)
      (datasheet https://www.onsemi.com/pub/Collateral/MBR20200CT-D.PDF)
      (libsource (lib digital) (part MBR20200))
      (sheetpath (names /power_block/) (tstamps /59E1131A/))
      (tstamp 5AC658D9))
    (comp (ref DH1)
      (value MBR20200)
      (footprint test:TO-220_Horizontal_inversé)
      (datasheet https://www.onsemi.com/pub/Collateral/MBR20200CT-D.PDF)
      (libsource (lib digital) (part MBR20200))
      (sheetpath (names /power_block/) (tstamps /59E1131A/))
      (tstamp 5AC66389))
    (comp (ref CPH1)
      (value C)
      (footprint Capacitors_THT:CP_Radial_D18.0mm_P7.50mm)
      (libsource (lib device) (part CP1))
      (sheetpath (names /power_block/) (tstamps /59E1131A/))
      (tstamp 59B6573D))
    (comp (ref CPH2)
      (value C)
      (footprint Capacitors_THT:CP_Radial_D18.0mm_P7.50mm)
      (libsource (lib device) (part CP1))
      (sheetpath (names /power_block/) (tstamps /59E1131A/))
      (tstamp 59B65685))
    (comp (ref CPH4)
      (value C)
      (footprint Capacitors_THT:CP_Radial_D18.0mm_P7.50mm)
      (libsource (lib device) (part CP1))
      (sheetpath (names /power_block/) (tstamps /59E1131A/))
      (tstamp 59A6CF5C))
    (comp (ref CPH3)
      (value C)
      (footprint Capacitors_THT:CP_Radial_D18.0mm_P7.50mm)
      (libsource (lib device) (part CP1))
      (sheetpath (names /power_block/) (tstamps /59E1131A/))
      (tstamp 592ED805))
    (comp (ref DR1)
      (value IRS2186)
      (footprint Housings_SOIC:SOIC-14_3.9x8.7mm_Pitch1.27mm)
      (datasheet https://www.infineon.com/dgdl/irs2186pbf.pdf?fileId=5546d462533600a40153567716c427ed)
      (libsource (lib IRS_Driver) (part IRS2186))
      (sheetpath (names /Sheet59DD8F50/) (tstamps /59DD8F51/))
      (tstamp 5717CC5F))
    (comp (ref Rdi1)
      (value 220)
      (footprint Resistors_THT:R_Axial_DIN0204_L3.6mm_D1.6mm_P5.08mm_Horizontal)
      (libsource (lib device) (part R))
      (sheetpath (names /Sheet59DD8F50/) (tstamps /59DD8F51/))
      (tstamp 59367A12))
    (comp (ref Rdi3)
      (value 220)
      (footprint Resistors_THT:R_Axial_DIN0204_L3.6mm_D1.6mm_P5.08mm_Horizontal)
      (libsource (lib device) (part R))
      (sheetpath (names /Sheet59DD8F50/) (tstamps /59DD8F51/))
      (tstamp 59368910))
    (comp (ref Rdi4)
      (value 220)
      (footprint Resistors_THT:R_Axial_DIN0204_L3.6mm_D1.6mm_P5.08mm_Horizontal)
      (libsource (lib device) (part R))
      (sheetpath (names /Sheet59DD8F50/) (tstamps /59DD8F51/))
      (tstamp 59368965))
    (comp (ref Cdr2)
      (value 100n)
      (footprint Capacitors_THT:C_Rect_L7.0mm_W2.0mm_P5.00mm)
      (libsource (lib device) (part C))
      (sheetpath (names /Sheet59DD8F50/) (tstamps /59DD8F51/))
      (tstamp 5936923B))
    (comp (ref Cdr1)
      (value 100n)
      (footprint Capacitors_THT:C_Rect_L7.0mm_W2.0mm_P5.00mm)
      (libsource (lib device) (part C))
      (sheetpath (names /Sheet59DD8F50/) (tstamps /59DD8F51/))
      (tstamp 5936952A))
    (comp (ref Cdr3)
      (value 500n)
      (footprint Capacitors_THT:C_Rect_L7.0mm_W2.0mm_P5.00mm)
      (libsource (lib device) (part C))
      (sheetpath (names /Sheet59DD8F50/) (tstamps /59DD8F51/))
      (tstamp 59369B13))
    (comp (ref TD1)
      (value CONN_01X01)
      (footprint Pin_Headers:Pin_Header_Straight_1x01_Pitch2.54mm)
      (libsource (lib digital-cache) (part CONN_01X01))
      (sheetpath (names /Sheet59DD8F50/) (tstamps /59DD8F51/))
      (tstamp 599F39EC))
    (comp (ref TD2)
      (value CONN_01X01)
      (footprint Pin_Headers:Pin_Header_Straight_1x01_Pitch2.54mm)
      (libsource (lib digital-cache) (part CONN_01X01))
      (sheetpath (names /Sheet59DD8F50/) (tstamps /59DD8F51/))
      (tstamp 599F3A3B))
    (comp (ref Rdi2)
      (value 220)
      (footprint Resistors_THT:R_Axial_DIN0204_L3.6mm_D1.6mm_P5.08mm_Horizontal)
      (libsource (lib device) (part R))
      (sheetpath (names /Sheet59DD8F50/) (tstamps /59DD8F51/))
      (tstamp 59367A7F))
    (comp (ref Diso2)
      (value Si862BB)
      (footprint Housings_SOIC:SOIC-8_3.9x4.9mm_Pitch1.27mm)
      (datasheet https://www.silabs.com/documents/public/data-sheets/si861x-2x-datasheet.pdf)
      (libsource (lib digital) (part Si862BB))
      (sheetpath (names /Sheet59DD8F50/) (tstamps /59DD8F51/))
      (tstamp 5ABE0E85))
    (comp (ref Cdi1)
      (value 100n)
      (footprint Capacitors_THT:C_Rect_L7.0mm_W2.0mm_P5.00mm)
      (libsource (lib device) (part C))
      (sheetpath (names /Sheet59DD8F50/) (tstamps /59DD8F51/))
      (tstamp 5ABE2366))
    (comp (ref Cdi2)
      (value 100n)
      (footprint Capacitors_THT:C_Rect_L7.0mm_W2.0mm_P5.00mm)
      (libsource (lib device) (part C))
      (sheetpath (names /Sheet59DD8F50/) (tstamps /59DD8F51/))
      (tstamp 5ABE94CD))
    (comp (ref DD1)
      (value MBR2H100SFT3G)
      (footprint Diodes_SMD:D_SOD-123)
      (datasheet https://docs-emea.rs-online.com/webdocs/1221/0900766b812212a8.pdf)
      (fields
        (field (name "Ref. RS") 781-5650))
      (libsource (lib device) (part D_Schottky))
      (sheetpath (names /Sheet59DD8F50/) (tstamps /59DD8F51/))
      (tstamp 5AC6650E)))
  (libparts
    (libpart (lib quad_shottky_x2) (part ARDUINO_NANO-RESCUE-Power_converter_V4)
      (fields
        (field (name Reference) SH)
        (field (name Value) ARDUINO_NANO-RESCUE-Power_converter_V4))
      (pins
        (pin (num 0) (name RX) (type input))
        (pin (num 1) (name TX) (type output))
        (pin (num 2) (name 2) (type BiDi))
        (pin (num 3) (name "3_(*)") (type input))
        (pin (num 4) (name 4) (type input))
        (pin (num 5) (name "5_(*)") (type input))
        (pin (num 5V) (name 5V) (type input))
        (pin (num 6) (name "6_(*)") (type input))
        (pin (num 7) (name 7) (type input))
        (pin (num 8) (name 8) (type input))
        (pin (num 9) (name "9_(*)") (type input))
        (pin (num 10) (name "10_(SS/*)") (type output))
        (pin (num 11) (name "11_(MOSI/*)") (type BiDi))
        (pin (num 12) (name "12_(MISO)") (type BiDi))
        (pin (num 13) (name "13_(SCK)") (type BiDi))
        (pin (num 3V3) (name 3V3) (type input))
        (pin (num A0) (name A0) (type input))
        (pin (num A1) (name A1) (type input))
        (pin (num A2) (name A2) (type input))
        (pin (num A3) (name A3) (type input))
        (pin (num A4) (name A4) (type input))
        (pin (num A5) (name A5) (type input))
        (pin (num A6) (name A6) (type input))
        (pin (num A7) (name A7) (type input))
        (pin (num AREF) (name AREF) (type input))
        (pin (num GND1) (name GND/1) (type input))
        (pin (num GND2) (name 2/GND) (type input))
        (pin (num RST1) (name RESET/1) (type input))
        (pin (num RST2) (name 2/RESET) (type input))
        (pin (num VIN) (name VIN) (type input))))
    (libpart (lib digital) (part BA50BC0FP-E2)
      (footprints
        (fp SOT-89*))
      (fields
        (field (name Reference) U)
        (field (name Value) BA50BC0FP-E2))
      (pins
        (pin (num 1) (name VI) (type BiDi))
        (pin (num 2) (name GND) (type power_in))
        (pin (num 3) (name VO) (type power_out))))
    (libpart (lib device) (part C)
      (description "Unpolarized capacitor")
      (footprints
        (fp C_*))
      (fields
        (field (name Reference) C)
        (field (name Value) C))
      (pins
        (pin (num 1) (name ~) (type passive))
        (pin (num 2) (name ~) (type passive))))
    (libpart (lib digital-cache) (part CONN_01X01)
      (footprints
        (fp Pin_Header_Straight_1X01)
        (fp Pin_Header_Angled_1X01)
        (fp Socket_Strip_Straight_1X01)
        (fp Socket_Strip_Angled_1X01))
      (fields
        (field (name Reference) P)
        (field (name Value) CONN_01X01))
      (pins
        (pin (num 1) (name P1) (type passive))))
    (libpart (lib quad_shottky_x2) (part CONN_01X02-RESCUE-Power_converter_V4)
      (footprints
        (fp Pin_Header_Straight_1X02)
        (fp Pin_Header_Angled_1X02)
        (fp Socket_Strip_Straight_1X02)
        (fp Socket_Strip_Angled_1X02))
      (fields
        (field (name Reference) P)
        (field (name Value) CONN_01X02-RESCUE-Power_converter_V4))
      (pins
        (pin (num 1) (name P1) (type 3state))
        (pin (num 2) (name P2) (type passive))))
    (libpart (lib device) (part CP)
      (description "Polarised capacitor")
      (footprints
        (fp CP_*))
      (fields
        (field (name Reference) C)
        (field (name Value) CP))
      (pins
        (pin (num 1) (name ~) (type passive))
        (pin (num 2) (name ~) (type passive))))
    (libpart (lib device) (part CP1)
      (description "Polarised capacitor")
      (footprints
        (fp CP_*))
      (fields
        (field (name Reference) C)
        (field (name Value) CP1))
      (pins
        (pin (num 1) (name ~) (type passive))
        (pin (num 2) (name ~) (type passive))))
    (libpart (lib device) (part C_Small)
      (description "Unpolarized capacitor")
      (footprints
        (fp C_*))
      (fields
        (field (name Reference) C)
        (field (name Value) C_Small))
      (pins
        (pin (num 1) (name ~) (type passive))
        (pin (num 2) (name ~) (type passive))))
    (libpart (lib device) (part D_Schottky)
      (description "Schottky diode")
      (footprints
        (fp TO-???*)
        (fp *SingleDiode)
        (fp *_Diode_*)
        (fp *SingleDiode*)
        (fp D_*))
      (fields
        (field (name Reference) D)
        (field (name Value) D_Schottky))
      (pins
        (pin (num 1) (name K) (type passive))
        (pin (num 2) (name A) (type passive))))
    (libpart (lib Power_converter_V4-rescue) (part IRF540N-RESCUE-Power_converter_V4)
      (footprints
        (fp TO-220*))
      (fields
        (field (name Reference) Q)
        (field (name Value) IRF540N-RESCUE-Power_converter_V4)
        (field (name Footprint) TO_SOT_Packages_THT:TO-220_Vertical))
      (pins
        (pin (num 1) (name G) (type input))
        (pin (num 2) (name D) (type passive))
        (pin (num 3) (name S) (type passive))))
    (libpart (lib IRS_Driver) (part IRS2186)
      (fields
        (field (name Reference) U)
        (field (name Value) IRS2186))
      (pins
        (pin (num 1) (name HIN) (type input))
        (pin (num 2) (name LIN) (type input))
        (pin (num 3) (name Vss) (type input))
        (pin (num 4) (name ~) (type input))
        (pin (num 5) (name COM) (type input))
        (pin (num 6) (name LO) (type input))
        (pin (num 7) (name Vcc) (type input))
        (pin (num 8) (name ~) (type input))
        (pin (num 9) (name ~) (type input))
        (pin (num 10) (name ~) (type input))
        (pin (num 11) (name Vs) (type input))
        (pin (num 12) (name HO) (type input))
        (pin (num 13) (name Vb) (type input))
        (pin (num 14) (name ~) (type input))))
    (libpart (lib texas) (part ISO7341C)
      (aliases
        (alias ISO7341FC))
      (description "Low Power Quad-Channel 3/1 Digital Isolator, 25Mbps 31ns, Fail-Safe High, SO16")
      (docs http://www.ti.com/general/docs/lit/getliterature.tsp?genericPartNumber=iso7341c&fileType=pdf)
      (footprints
        (fp SO*))
      (fields
        (field (name Reference) U)
        (field (name Value) ISO7341C)
        (field (name Footprint) Housings_SOIC:SOIC-16W_7.5x10.3mm_Pitch1.27mm))
      (pins
        (pin (num 1) (name VCC1) (type power_in))
        (pin (num 2) (name GND1) (type power_in))
        (pin (num 3) (name INA) (type input))
        (pin (num 4) (name INB) (type input))
        (pin (num 5) (name INC) (type input))
        (pin (num 6) (name OUTD) (type output))
        (pin (num 7) (name EN1) (type input))
        (pin (num 8) (name GND1) (type power_in))
        (pin (num 9) (name GND2) (type power_in))
        (pin (num 10) (name EN2) (type input))
        (pin (num 11) (name IND) (type input))
        (pin (num 12) (name OUTC) (type output))
        (pin (num 13) (name OUTB) (type output))
        (pin (num 14) (name OUTA) (type output))
        (pin (num 15) (name GND2) (type power_in))
        (pin (num 16) (name VCC2) (type power_in))))
    (libpart (lib device) (part L)
      (description Inductor)
      (footprints
        (fp Choke_*)
        (fp *Coil*)
        (fp Inductor_*)
        (fp L_*))
      (fields
        (field (name Reference) L)
        (field (name Value) L))
      (pins
        (pin (num 1) (name 1) (type passive))
        (pin (num 2) (name 2) (type passive))))
    (libpart (lib measurement_chain_LV-cache) (part LED-RESCUE-Power_converter_V4)
      (footprints
        (fp LED*))
      (fields
        (field (name Reference) D)
        (field (name Value) LED-RESCUE-Power_converter_V4))
      (pins
        (pin (num 1) (name K) (type passive))
        (pin (num 2) (name A) (type passive))))
    (libpart (lib sensors) (part LM35-LP)
      (description "Precision centigrade temperature sensor, TO-92 package")
      (docs http://www.ti.com/lit/ds/symlink/lm35.pdf)
      (footprints
        (fp TO-92*))
      (fields
        (field (name Reference) U)
        (field (name Value) LM35-LP))
      (pins
        (pin (num 1) (name +VS) (type power_in))
        (pin (num 2) (name Vout) (type output))
        (pin (num 3) (name GND) (type power_in))))
    (libpart (lib lm2672) (part LMR16010)
      (fields
        (field (name Reference) U)
        (field (name Value) LMR16010))
      (pins
        (pin (num 1) (name BOOT) (type input))
        (pin (num 2) (name Vin) (type input))
        (pin (num 3) (name EN) (type input))
        (pin (num 4) (name RT/SYNC) (type input))
        (pin (num 5) (name FB) (type input))
        (pin (num 6) (name PGOOD) (type input))
        (pin (num 7) (name GND) (type input))
        (pin (num 8) (name SW) (type input))))
    (libpart (lib digital) (part MBR20200)
      (description "Double diode Schottky (Serie)")
      (fields
        (field (name Reference) D)
        (field (name Value) MBR20200))
      (pins
        (pin (num 1) (name A) (type passive))
        (pin (num 2) (name K) (type passive))
        (pin (num 3) (name A) (type passive))))
    (libpart (lib digital) (part MCP1541)
      (aliases
        (alias MAX872))
      (description "Voltage reference")
      (docs maxim\MAX872-MAX874.pdf)
      (fields
        (field (name Reference) U)
        (field (name Value) MCP1541))
      (pins
        (pin (num 1) (name VSS) (type input))
        (pin (num 2) (name VOUT) (type output))
        (pin (num 3) (name VIN) (type input))))
    (libpart (lib Power_converter_V4-rescue) (part MCP3208-RESCUE-Power_converter_V4)
      (footprints
        (fp DIP*W7.62mm*)
        (fp SOIC*3.9x9.9mm*Pitch1.27mm*))
      (fields
        (field (name Reference) U)
        (field (name Value) MCP3208-RESCUE-Power_converter_V4))
      (pins
        (pin (num 1) (name CH0) (type input))
        (pin (num 2) (name CH1) (type input))
        (pin (num 3) (name CH2) (type input))
        (pin (num 4) (name CH3) (type input))
        (pin (num 5) (name CH4) (type input))
        (pin (num 6) (name CH5) (type input))
        (pin (num 7) (name CH6) (type input))
        (pin (num 8) (name CH7) (type input))
        (pin (num 9) (name DGND) (type power_in))
        (pin (num 10) (name ~CS) (type input))
        (pin (num 11) (name Din) (type input))
        (pin (num 12) (name Dout) (type output))
        (pin (num 13) (name CLK) (type input))
        (pin (num 14) (name AGND) (type power_in))
        (pin (num 15) (name Vref) (type power_in))
        (pin (num 16) (name Vdd) (type power_in))))
    (libpart (lib quad_shottky_x2) (part Module_TTL_RS485-RESCUE-Power_converter_V4)
      (fields
        (field (name Reference) SH)
        (field (name Value) Module_TTL_RS485-RESCUE-Power_converter_V4))
      (pins
        (pin (num 1) (name VCC) (type input))
        (pin (num 2) (name B) (type input))
        (pin (num 3) (name A) (type input))
        (pin (num 4) (name GND) (type output))
        (pin (num 5) (name DI) (type input))
        (pin (num 6) (name DE) (type input))
        (pin (num 7) (name RE) (type input))
        (pin (num 8) (name RO) (type output))))
    (libpart (lib digital) (part OPA2374)
      (description "Dual Op amp (low power)")
      (docs analog-dev/op275.pdf)
      (fields
        (field (name Reference) U)
        (field (name Value) OPA2374))
      (pins
        (pin (num 1) (name ~) (type output))
        (pin (num 2) (name -) (type input))
        (pin (num 3) (name +) (type input))
        (pin (num 4) (name V-) (type power_in))
        (pin (num 5) (name +) (type input))
        (pin (num 6) (name -) (type input))
        (pin (num 7) (name ~) (type output))
        (pin (num 8) (name V+) (type power_in))))
    (libpart (lib digital) (part OPA374)
      (description "Op Amp in 5-pin package")
      (docs http://ww1.microchip.com/downloads/en/DeviceDoc/21733j.pdf)
      (fields
        (field (name Reference) U)
        (field (name Value) OPA374))
      (pins
        (pin (num 2) (name -) (type input))
        (pin (num 3) (name +) (type input))
        (pin (num 4) (name V-) (type input))
        (pin (num 6) (name ~) (type output))
        (pin (num 7) (name V+) (type input))
        (pin (num 8) (name En) (type input))))
    (libpart (lib measurement_chain_LV-cache) (part POT-RESCUE-Power_converter_V4)
      (fields
        (field (name Reference) RV)
        (field (name Value) POT-RESCUE-Power_converter_V4))
      (pins
        (pin (num 1) (name 1) (type passive))
        (pin (num 2) (name 2) (type passive))
        (pin (num 3) (name 3) (type passive))))
    (libpart (lib device) (part Q_NPN_BCE)
      (description "Transistor NPN (general)")
      (fields
        (field (name Reference) Q)
        (field (name Value) Q_NPN_BCE))
      (pins
        (pin (num 1) (name B) (type input))
        (pin (num 2) (name C) (type passive))
        (pin (num 3) (name E) (type passive))))
    (libpart (lib device) (part R)
      (description Resistor)
      (footprints
        (fp R_*)
        (fp R_*))
      (fields
        (field (name Reference) R)
        (field (name Value) R))
      (pins
        (pin (num 1) (name ~) (type passive))
        (pin (num 2) (name ~) (type passive))))
    (libpart (lib digital) (part Si862BB)
      (fields
        (field (name Reference) U)
        (field (name Value) Si862BB))
      (pins
        (pin (num 1) (name VDD1) (type power_in))
        (pin (num 2) (name A1) (type input))
        (pin (num 3) (name A2) (type input))
        (pin (num 4) (name GND1) (type power_in))
        (pin (num 5) (name GND2) (type power_in))
        (pin (num 6) (name B2) (type output))
        (pin (num 7) (name B1) (type output))
        (pin (num 8) (name VDD2) (type power_in))))
    (libpart (lib feeder_block-cache) (part TME/CRE)
      (fields
        (field (name Reference) U)
        (field (name Value) TME/CRE))
      (pins
        (pin (num 1) (name Vin-) (type input))
        (pin (num 2) (name Vin+) (type input))
        (pin (num 3) (name Vout-) (type input))
        (pin (num 4) (name Vout+) (type output))))
    (libpart (lib digital-cache) (part ZENER)
      (footprints
        (fp D?)
        (fp SO*)
        (fp SM*))
      (fields
        (field (name Reference) D)
        (field (name Value) ZENER))
      (pins
        (pin (num 1) (name K) (type passive))
        (pin (num 2) (name A) (type passive)))))
  (libraries
    (library (logical device)
      (uri /usr/share/kicad/library/device.lib))
    (library (logical Power_converter_V4-rescue)
      (uri "/home/luiz/LAAS/9-2017-2018/1-Research/2-Projects-Studies/1-Projects/0-Power Module/2-Hardware/Version4.2/libraries/Power_converter_V4-rescue.lib"))
    (library (logical texas)
      (uri /usr/share/kicad/library/texas.lib))
    (library (logical IRS_Driver)
      (uri "/home/luiz/LAAS/9-2017-2018/1-Research/2-Projects-Studies/1-Projects/0-Power Module/2-Hardware/Version4.2/libraries/IRS_Driver.lib"))
    (library (logical sensors)
      (uri /usr/share/kicad/library/sensors.lib))
    (library (logical digital)
      (uri "/home/luiz/LAAS/9-2017-2018/1-Research/2-Projects-Studies/1-Projects/0-Power Module/2-Hardware/Version4.2/libraries/digital.lib"))
    (library (logical digital-cache)
      (uri "/home/luiz/LAAS/9-2017-2018/1-Research/2-Projects-Studies/1-Projects/0-Power Module/2-Hardware/Version4.2/libraries/digital-cache.lib"))
    (library (logical lm2672)
      (uri "/home/luiz/LAAS/9-2017-2018/1-Research/2-Projects-Studies/1-Projects/0-Power Module/2-Hardware/Version4.2/libraries/lm2672.lib"))
    (library (logical feeder_block-cache)
      (uri "/home/luiz/LAAS/9-2017-2018/1-Research/2-Projects-Studies/1-Projects/0-Power Module/2-Hardware/Version4.2/libraries/feeder_block-cache.lib"))
    (library (logical measurement_chain_LV-cache)
      (uri "/home/luiz/LAAS/9-2017-2018/1-Research/2-Projects-Studies/1-Projects/0-Power Module/2-Hardware/Version4.2/libraries/measurement_chain_LV-cache.lib"))
    (library (logical quad_shottky_x2)
      (uri "/home/luiz/LAAS/9-2017-2018/1-Research/2-Projects-Studies/1-Projects/0-Power Module/2-Hardware/Version4.2/libraries/quad_shottky_x2.lib")))
  (nets
    (net (code 1) (name "/Feeder Block/+5VHigh")
      (node (ref Cdt1) (pin 1))
      (node (ref Cd2) (pin 2))
      (node (ref UADC1) (pin 16))
      (node (ref Uf3) (pin 2))
      (node (ref Cd3) (pin 2))
      (node (ref S1) (pin 1))
      (node (ref Cd5) (pin 2))
      (node (ref Uf2) (pin 3))
      (node (ref Rpu1) (pin 1))
      (node (ref Cdi2) (pin 1))
      (node (ref Cd4) (pin 2))
      (node (ref Ref1) (pin 3))
      (node (ref Diso2) (pin 8))
      (node (ref Ris1) (pin 1))
      (node (ref U4) (pin 7))
      (node (ref Ris2) (pin 1))
      (node (ref U2) (pin 8))
      (node (ref Diso1) (pin 16))
      (node (ref Tf2) (pin 1))
      (node (ref LDH1) (pin 2))
      (node (ref Cd6) (pin 1))
      (node (ref Cd8) (pin 2))
      (node (ref Cld2) (pin 1))
      (node (ref U1) (pin 7))
      (node (ref Cd1) (pin 2))
      (node (ref U3) (pin 8)))
    (net (code 2) (name /Hin)
      (node (ref Rdi3) (pin 1))
      (node (ref TD1) (pin 1))
      (node (ref DR1) (pin 1)))
    (net (code 3) (name /Lin)
      (node (ref Rdi4) (pin 1))
      (node (ref TD2) (pin 1))
      (node (ref DR1) (pin 2)))
    (net (code 4) (name /Vlow)
      (node (ref Uf1) (pin 3))
      (node (ref Uf1) (pin 2))
      (node (ref CH2) (pin 1))
      (node (ref CH1) (pin 1))
      (node (ref CPL1) (pin 1))
      (node (ref CPL3) (pin 1))
      (node (ref RVL1) (pin 1))
      (node (ref L1) (pin 1))
      (node (ref CPL2) (pin 1))
      (node (ref CNL1) (pin 1))
      (node (ref CPL4) (pin 1)))
    (net (code 5) (name /+5Vlow)
      (node (ref Ris3) (pin 2))
      (node (ref Ris4) (pin 2))
      (node (ref SH1) (pin 5V))
      (node (ref Uf3) (pin 4))
      (node (ref Cd7) (pin 1))
      (node (ref LDL1) (pin 2))
      (node (ref Diso1) (pin 1))
      (node (ref Cdi1) (pin 1))
      (node (ref Diso2) (pin 1))
      (node (ref Tf3) (pin 1))
      (node (ref MOD1) (pin 1)))
    (net (code 6) (name /Pgood)
      (node (ref Rpu1) (pin 2))
      (node (ref UADC1) (pin 1))
      (node (ref TM6) (pin 1))
      (node (ref Uf1) (pin 6)))
    (net (code 7) (name GND)
      (node (ref Diso1) (pin 2))
      (node (ref Cd7) (pin 2))
      (node (ref Tu2) (pin 1))
      (node (ref MOD1) (pin 4))
      (node (ref SH1) (pin GND2))
      (node (ref RL1) (pin 2))
      (node (ref Uf3) (pin 3))
      (node (ref Cdi1) (pin 2))
      (node (ref Diso2) (pin 4))
      (node (ref Tf4) (pin 1))
      (node (ref Diso1) (pin 8))
      (node (ref SH1) (pin GND1)))
    (net (code 8) (name /PWML1)
      (node (ref Rdi2) (pin 2))
      (node (ref SH1) (pin 5)))
    (net (code 9) (name /PWMH1)
      (node (ref Rdi1) (pin 2))
      (node (ref SH1) (pin 3)))
    (net (code 10) (name /VL+)
      (node (ref U2) (pin 5))
      (node (ref RVL2) (pin 1))
      (node (ref RVL1) (pin 2))
      (node (ref CVL1) (pin 1)))
    (net (code 11) (name /VH+)
      (node (ref RVH2) (pin 2))
      (node (ref RVH3) (pin 1))
      (node (ref CVH1) (pin 1))
      (node (ref U3) (pin 5)))
    (net (code 12) (name /VH-)
      (node (ref RiH3) (pin 1))
      (node (ref RiH1) (pin 1))
      (node (ref RiH2) (pin 1))
      (node (ref CNH1) (pin 2))
      (node (ref RVH3) (pin 2))
      (node (ref CVH1) (pin 2))
      (node (ref Rf4) (pin 1)))
    (net (code 13) (name GNDPWR)
      (node (ref DR1) (pin 5))
      (node (ref DR1) (pin 3))
      (node (ref U1) (pin 4))
      (node (ref Diso2) (pin 5))
      (node (ref Cd2) (pin 1))
      (node (ref Cdr2) (pin 1))
      (node (ref Rld2) (pin 2))
      (node (ref U3) (pin 4))
      (node (ref CH2) (pin 2))
      (node (ref CH1) (pin 2))
      (node (ref PH1) (pin 3))
      (node (ref Cdr1) (pin 1))
      (node (ref Ref1) (pin 1))
      (node (ref Cd4) (pin 1))
      (node (ref Rt1) (pin 2))
      (node (ref Diso1) (pin 15))
      (node (ref Diso1) (pin 9))
      (node (ref Pof1) (pin 3))
      (node (ref U2) (pin 4))
      (node (ref Cd1) (pin 1))
      (node (ref Uf3) (pin 1))
      (node (ref Cd3) (pin 1))
      (node (ref Ds1) (pin 2))
      (node (ref Cd5) (pin 1))
      (node (ref Cd6) (pin 2))
      (node (ref Cld1) (pin 2))
      (node (ref Cld2) (pin 2))
      (node (ref U4) (pin 4))
      (node (ref CH6) (pin 2))
      (node (ref RH2) (pin 2))
      (node (ref Uf1) (pin 7))
      (node (ref Tf5) (pin 1))
      (node (ref Dln1) (pin 2))
      (node (ref Uf2) (pin 2))
      (node (ref DL1) (pin 1))
      (node (ref DL1) (pin 3))
      (node (ref CPH1) (pin 2))
      (node (ref CPH2) (pin 2))
      (node (ref CPH4) (pin 2))
      (node (ref CPH3) (pin 2))
      (node (ref RiH3) (pin 2))
      (node (ref RiH2) (pin 2))
      (node (ref RiH1) (pin 2))
      (node (ref CPL4) (pin 2))
      (node (ref RiL1) (pin 1))
      (node (ref Cdi2) (pin 2))
      (node (ref S1) (pin 3))
      (node (ref ML1) (pin 3))
      (node (ref CPL2) (pin 2))
      (node (ref CPL3) (pin 2))
      (node (ref CPL1) (pin 2))
      (node (ref Cdt1) (pin 2))
      (node (ref RiL3) (pin 1))
      (node (ref RiL2) (pin 1))
      (node (ref UADC1) (pin 9))
      (node (ref Rg3) (pin 2))
      (node (ref UADC1) (pin 14))
      (node (ref Cd9) (pin 2))
      (node (ref Cf1) (pin 1))
      (node (ref Rg1) (pin 2))
      (node (ref Cf2) (pin 1))
      (node (ref Cd8) (pin 1)))
    (net (code 14) (name /VgH)
      (node (ref DR1) (pin 12))
      (node (ref RM1) (pin 2)))
    (net (code 15) (name /VsH)
      (node (ref Cdr3) (pin 2))
      (node (ref DR1) (pin 11))
      (node (ref MH1) (pin 3))
      (node (ref ML1) (pin 2))
      (node (ref DH1) (pin 3))
      (node (ref DH1) (pin 1))
      (node (ref DL1) (pin 2))
      (node (ref L1) (pin 2)))
    (net (code 16) (name /VgL)
      (node (ref DR1) (pin 6))
      (node (ref RM2) (pin 2)))
    (net (code 17) (name /VT1+)
      (node (ref S1) (pin 2))
      (node (ref U1) (pin 3)))
    (net (code 18) (name /DE/RE)
      (node (ref MOD1) (pin 6))
      (node (ref MOD1) (pin 7))
      (node (ref SH1) (pin 2)))
    (net (code 19) (name /DI)
      (node (ref SH1) (pin 1))
      (node (ref MOD1) (pin 5)))
    (net (code 20) (name /RO)
      (node (ref MOD1) (pin 8))
      (node (ref SH1) (pin 0)))
    (net (code 21) (name /miso)
      (node (ref Diso1) (pin 6))
      (node (ref SH1) (pin 12)))
    (net (code 22) (name /mosi)
      (node (ref SH1) (pin 11))
      (node (ref Diso1) (pin 4)))
    (net (code 23) (name /SS)
      (node (ref Diso1) (pin 5))
      (node (ref SH1) (pin 10)))
    (net (code 24) (name /clk)
      (node (ref SH1) (pin 13))
      (node (ref Diso1) (pin 3)))
    (net (code 25) (name /Vhigh)
      (node (ref Rln1) (pin 1))
      (node (ref MH1) (pin 2))
      (node (ref CPH1) (pin 1))
      (node (ref CPH2) (pin 1))
      (node (ref CPH4) (pin 1))
      (node (ref CPH3) (pin 1))
      (node (ref DH1) (pin 2))
      (node (ref CNH1) (pin 1))
      (node (ref RVH1) (pin 1))
      (node (ref Rln2) (pin 1))
      (node (ref Qln1) (pin 2)))
    (net (code 26) (name /VL-)
      (node (ref Rf1) (pin 2))
      (node (ref RVL2) (pin 2))
      (node (ref RiL2) (pin 2))
      (node (ref CVL1) (pin 2))
      (node (ref RiL1) (pin 2))
      (node (ref RiL3) (pin 2))
      (node (ref CNL1) (pin 2)))
    (net (code 27) (name "/Feeder Block/+15VHigh")
      (node (ref DR1) (pin 7))
      (node (ref Cdr1) (pin 2))
      (node (ref Dln2) (pin 1))
      (node (ref Qln1) (pin 3))
      (node (ref Rld1) (pin 2))
      (node (ref DD1) (pin 2))
      (node (ref Cdr2) (pin 2))
      (node (ref Tf1) (pin 1)))
    (net (code 28) (name "Net-(U1-Pad8)")
      (node (ref U1) (pin 8)))
    (net (code 29) (name "/Measurement Block/Voffset")
      (node (ref U4) (pin 2))
      (node (ref TM7) (pin 1))
      (node (ref Rf3) (pin 1))
      (node (ref Rf2) (pin 2))
      (node (ref U4) (pin 6)))
    (net (code 30) (name "Net-(UADC1-Pad7)")
      (node (ref UADC1) (pin 7)))
    (net (code 31) (name "/Measurement Block/+VRef")
      (node (ref Ref1) (pin 2))
      (node (ref Rof1) (pin 1))
      (node (ref Rof2) (pin 1))
      (node (ref Cd9) (pin 1))
      (node (ref UADC1) (pin 15)))
    (net (code 32) (name "Net-(Pof1-Pad1)")
      (node (ref Pof1) (pin 1))
      (node (ref Rof1) (pin 2))
      (node (ref Rof2) (pin 2))
      (node (ref Pof1) (pin 2))
      (node (ref U4) (pin 3)))
    (net (code 33) (name "Net-(Diso1-Pad10)")
      (node (ref Ris2) (pin 2))
      (node (ref Diso1) (pin 10))
      (node (ref Ris1) (pin 2)))
    (net (code 34) (name "Net-(Cf1-Pad2)")
      (node (ref U2) (pin 3))
      (node (ref Rf2) (pin 1))
      (node (ref Rf1) (pin 1))
      (node (ref Cf1) (pin 2)))
    (net (code 35) (name "Net-(Diso1-Pad7)")
      (node (ref Ris3) (pin 1))
      (node (ref Diso1) (pin 7))
      (node (ref Ris4) (pin 1)))
    (net (code 36) (name "Net-(U4-Pad8)")
      (node (ref U4) (pin 8)))
    (net (code 37) (name "Net-(Diso1-Pad12)")
      (node (ref Diso1) (pin 12))
      (node (ref UADC1) (pin 10)))
    (net (code 38) (name "Net-(Diso1-Pad13)")
      (node (ref UADC1) (pin 11))
      (node (ref Diso1) (pin 13)))
    (net (code 39) (name "Net-(UADC1-Pad8)")
      (node (ref UADC1) (pin 8)))
    (net (code 40) (name "/Measurement Block/VmiH+")
      (node (ref UADC1) (pin 5))
      (node (ref U3) (pin 1))
      (node (ref Rg4) (pin 1))
      (node (ref TM2) (pin 1)))
    (net (code 41) (name "/Measurement Block/VmL+")
      (node (ref UADC1) (pin 2))
      (node (ref TM3) (pin 1))
      (node (ref U2) (pin 6))
      (node (ref U2) (pin 7)))
    (net (code 42) (name "/Measurement Block/VmiL+")
      (node (ref TM1) (pin 1))
      (node (ref Rg2) (pin 1))
      (node (ref U2) (pin 1))
      (node (ref UADC1) (pin 3)))
    (net (code 43) (name "/Measurement Block/VmT1+")
      (node (ref U1) (pin 6))
      (node (ref U1) (pin 2))
      (node (ref UADC1) (pin 4))
      (node (ref TM5) (pin 1)))
    (net (code 44) (name "/Measurement Block/VmH+")
      (node (ref U3) (pin 6))
      (node (ref U3) (pin 7))
      (node (ref UADC1) (pin 6))
      (node (ref TM4) (pin 1)))
    (net (code 45) (name "Net-(Diso1-Pad11)")
      (node (ref Diso1) (pin 11))
      (node (ref UADC1) (pin 12)))
    (net (code 46) (name "Net-(Diso1-Pad14)")
      (node (ref Diso1) (pin 14))
      (node (ref UADC1) (pin 13)))
    (net (code 47) (name "Net-(Cf2-Pad2)")
      (node (ref U3) (pin 3))
      (node (ref Cf2) (pin 2))
      (node (ref Rf3) (pin 2))
      (node (ref Rf4) (pin 2)))
    (net (code 48) (name "Net-(Rg1-Pad1)")
      (node (ref Rg1) (pin 1))
      (node (ref Rg2) (pin 2))
      (node (ref U2) (pin 2)))
    (net (code 49) (name "Net-(Rg3-Pad1)")
      (node (ref Rg4) (pin 2))
      (node (ref U3) (pin 2))
      (node (ref Rg3) (pin 1)))
    (net (code 50) (name "Net-(SH1-PadA7)")
      (node (ref SH1) (pin A7)))
    (net (code 51) (name "Net-(SH1-PadA5)")
      (node (ref SH1) (pin A5)))
    (net (code 52) (name "Net-(SH1-PadA3)")
      (node (ref SH1) (pin A3)))
    (net (code 53) (name "Net-(SH1-PadRST2)")
      (node (ref SH1) (pin RST2)))
    (net (code 54) (name "Net-(SH1-PadA1)")
      (node (ref SH1) (pin A1)))
    (net (code 55) (name "Net-(SH1-Pad9)")
      (node (ref SH1) (pin 9)))
    (net (code 56) (name "Net-(SH1-PadRST1)")
      (node (ref SH1) (pin RST1)))
    (net (code 57) (name "Net-(SH1-Pad7)")
      (node (ref SH1) (pin 7)))
    (net (code 58) (name "Net-(SH1-Pad3V3)")
      (node (ref SH1) (pin 3V3)))
    (net (code 59) (name "Net-(SH1-PadA2)")
      (node (ref SH1) (pin A2)))
    (net (code 60) (name "Net-(SH1-PadA4)")
      (node (ref SH1) (pin A4)))
    (net (code 61) (name "Net-(SH1-PadA6)")
      (node (ref SH1) (pin A6)))
    (net (code 62) (name "Net-(SH1-PadAREF)")
      (node (ref SH1) (pin AREF)))
    (net (code 63) (name "Net-(SH1-PadVIN)")
      (node (ref SH1) (pin VIN)))
    (net (code 64) (name "/Microcontroller Block/A0")
      (node (ref SH1) (pin A0))
      (node (ref Tu1) (pin 1)))
    (net (code 65) (name "Net-(SH1-Pad6)")
      (node (ref SH1) (pin 6)))
    (net (code 66) (name "Net-(SH1-Pad4)")
      (node (ref SH1) (pin 4)))
    (net (code 67) (name "Net-(SH1-Pad8)")
      (node (ref SH1) (pin 8)))
    (net (code 68) (name "Net-(LDL1-Pad1)")
      (node (ref LDL1) (pin 1))
      (node (ref RL1) (pin 1)))
    (net (code 69) (name "Net-(LDH1-Pad1)")
      (node (ref LDH1) (pin 1))
      (node (ref Rld2) (pin 1)))
    (net (code 70) (name "Net-(Cld1-Pad1)")
      (node (ref Cld1) (pin 1))
      (node (ref Rld1) (pin 1))
      (node (ref Uf2) (pin 1)))
    (net (code 71) (name "Net-(Cb1-Pad2)")
      (node (ref Ds1) (pin 1))
      (node (ref Ls1) (pin 1))
      (node (ref Cb1) (pin 2))
      (node (ref Uf1) (pin 8)))
    (net (code 72) (name "Net-(Cb1-Pad1)")
      (node (ref Uf1) (pin 1))
      (node (ref Cb1) (pin 1)))
    (net (code 73) (name "Net-(LDH2-Pad1)")
      (node (ref LDH2) (pin 1))
      (node (ref RH2) (pin 1)))
    (net (code 74) (name "Net-(Rt3-Pad1)")
      (node (ref Uf1) (pin 4))
      (node (ref Rt3) (pin 1)))
    (net (code 75) (name "Net-(Rt2-Pad1)")
      (node (ref Rt3) (pin 2))
      (node (ref Rt2) (pin 1)))
    (net (code 76) (name "Net-(Rt1-Pad1)")
      (node (ref Rt2) (pin 2))
      (node (ref Rt1) (pin 1)))
    (net (code 77) (name "Net-(PH1-Pad1)")
      (node (ref PH1) (pin 1))
      (node (ref PH1) (pin 2))
      (node (ref Rfbt1) (pin 2))
      (node (ref Uf1) (pin 5)))
    (net (code 78) (name "Net-(Dln1-Pad1)")
      (node (ref Rln1) (pin 2))
      (node (ref Qln1) (pin 1))
      (node (ref Rln2) (pin 2))
      (node (ref Dln1) (pin 1)))
    (net (code 79) (name "/Feeder Block/+15VLMR")
      (node (ref Rfbt1) (pin 1))
      (node (ref LDH2) (pin 2))
      (node (ref CH6) (pin 1))
      (node (ref Dln2) (pin 2))
      (node (ref Ls1) (pin 2)))
    (net (code 80) (name "Net-(MOD1-Pad3)")
      (node (ref MOD1) (pin 3)))
    (net (code 81) (name "Net-(MOD1-Pad2)")
      (node (ref MOD1) (pin 2)))
    (net (code 82) (name "Net-(Diso2-Pad7)")
      (node (ref Rdi3) (pin 2))
      (node (ref Diso2) (pin 7)))
    (net (code 83) (name "Net-(Diso2-Pad6)")
      (node (ref Diso2) (pin 6))
      (node (ref Rdi4) (pin 2)))
    (net (code 84) (name "Net-(Diso2-Pad2)")
      (node (ref Rdi1) (pin 1))
      (node (ref Diso2) (pin 2)))
    (net (code 85) (name "Net-(Diso2-Pad3)")
      (node (ref Diso2) (pin 3))
      (node (ref Rdi2) (pin 1)))
    (net (code 86) (name "Net-(DR1-Pad4)")
      (node (ref DR1) (pin 4)))
    (net (code 87) (name "Net-(DR1-Pad14)")
      (node (ref DR1) (pin 14)))
    (net (code 88) (name "Net-(DR1-Pad10)")
      (node (ref DR1) (pin 10)))
    (net (code 89) (name "Net-(DR1-Pad9)")
      (node (ref DR1) (pin 9)))
    (net (code 90) (name "Net-(DR1-Pad8)")
      (node (ref DR1) (pin 8)))
    (net (code 91) (name "Net-(Cdr3-Pad1)")
      (node (ref DD1) (pin 1))
      (node (ref DR1) (pin 13))
      (node (ref Cdr3) (pin 1)))
    (net (code 92) (name "Net-(RVH1-Pad2)")
      (node (ref RVH2) (pin 1))
      (node (ref RVH1) (pin 2)))
    (net (code 93) (name "Net-(ML1-Pad1)")
      (node (ref ML1) (pin 1))
      (node (ref RM2) (pin 1)))
    (net (code 94) (name "Net-(MH1-Pad1)")
      (node (ref MH1) (pin 1))
      (node (ref RM1) (pin 1)))))