(fp_lib_table
  (lib (name Air_Coils_SML_NEOSID)(type KiCad)(uri ${KISYSMOD}/Air_Coils_SML_NEOSID.pretty)(options "")(descr "Deprecated - will be removed"))
  (lib (name Battery_Holders)(type KiCad)(uri ${KISYSMOD}/Battery_Holders.pretty)(options "")(descr "Batteries and battery holders"))
  (lib (name Buttons_Switches_SMD)(type KiCad)(uri ${KISYSMOD}/Buttons_Switches_SMD.pretty)(options "")(descr "Buttons and switches, surface mount"))
  (lib (name Buttons_Switches_THT)(type KiCad)(uri ${KISYSMOD}/Buttons_Switches_THT.pretty)(options "")(descr "Buttons and switches, through hole"))
  (lib (name Buzzers_Beepers)(type KiCad)(uri ${KISYSMOD}/Buzzers_Beepers.pretty)(options "")(descr "Audio signalling devices"))
  (lib (name Capacitors_SMD)(type KiCad)(uri ${KISYSMOD}/Capacitors_SMD.pretty)(options "")(descr "Capacitors, surface mount"))
  (lib (name Capacitors_Tantalum_SMD)(type KiCad)(uri ${KISYSMOD}/Capacitors_Tantalum_SMD.pretty)(options "")(descr "Tantalum capacitors, surface mount"))
  (lib (name Capacitors_THT)(type KiCad)(uri ${KISYSMOD}/Capacitors_THT.pretty)(options "")(descr "Capacitors, through hole"))
  (lib (name Choke_Axial_ThroughHole)(type KiCad)(uri ${KISYSMOD}/Choke_Axial_ThroughHole.pretty)(options "")(descr "Deprecated - will be removed"))
  (lib (name Choke_Common-Mode_Wurth)(type KiCad)(uri ${KISYSMOD}/Choke_Common-Mode_Wurth.pretty)(options "")(descr "Deprecated - will be removed"))
  (lib (name Choke_Radial_ThroughHole)(type KiCad)(uri ${KISYSMOD}/Choke_Radial_ThroughHole.pretty)(options "")(descr "Deprecated - will be removed"))
  (lib (name Choke_SMD)(type KiCad)(uri ${KISYSMOD}/Choke_SMD.pretty)(options "")(descr "Deprecated - will be removed"))
  (lib (name Choke_Toroid_ThroughHole)(type KiCad)(uri ${KISYSMOD}/Choke_Toroid_ThroughHole.pretty)(options "")(descr "Deprecated - will be removed"))
  (lib (name Connectors_Harwin)(type KiCad)(uri ${KISYSMOD}/Connectors_Harwin.pretty)(options "")(descr "Harwin connector footprints www.harwin.com"))
  (lib (name Connectors_Hirose)(type KiCad)(uri ${KISYSMOD}/Connectors_Hirose.pretty)(options "")(descr "Hirose connector footprints www.hirose.com"))
  (lib (name Connectors_JAE)(type KiCad)(uri ${KISYSMOD}/Connectors_JAE.pretty)(options "")(descr "JAE connector footprints http://www.jae.com/jccom/en/connectors"))
  (lib (name Connectors_JST)(type KiCad)(uri ${KISYSMOD}/Connectors_JST.pretty)(options "")(descr "JST connector footprints www.jst.com"))
  (lib (name Connectors_Mini-Universal)(type KiCad)(uri ${KISYSMOD}/Connectors_Mini-Universal.pretty)(options "")(descr Mate-N-Lok))
  (lib (name Connectors_Molex)(type KiCad)(uri ${KISYSMOD}/Connectors_Molex.pretty)(options "")(descr "Molex connector foottprints www.molex.com"))
  (lib (name Connectors_Multicomp)(type KiCad)(uri ${KISYSMOD}/Connectors_Multicomp.pretty)(options "")(descr "Multicomp connector footprints"))
  (lib (name Connectors_Phoenix)(type KiCad)(uri ${KISYSMOD}/Connectors_Phoenix.pretty)(options "")(descr "Phoenix connector footprints"))
  (lib (name Connectors_Samtec)(type KiCad)(uri ${KISYSMOD}/Connectors_Samtec.pretty)(options "")(descr "Samtec connector footprints"))
  (lib (name Connectors_TE-Connectivity)(type KiCad)(uri ${KISYSMOD}/Connectors_TE-Connectivity.pretty)(options "")(descr "TE Connectivity connector footprints www.te.com"))
  (lib (name Connectors_Terminal_Blocks)(type KiCad)(uri ${KISYSMOD}/Connectors_Terminal_Blocks.pretty)(options "")(descr "Terminal block connectors"))
  (lib (name Connectors_WAGO)(type KiCad)(uri ${KISYSMOD}/Connectors_WAGO.pretty)(options "")(descr "WAGO connector footprints www.wago.com"))
  (lib (name Connectors_USB)(type KiCad)(uri ${KISYSMOD}/Connectors_USB.pretty)(options "")(descr "USB connector footprints"))
  (lib (name Connectors)(type KiCad)(uri ${KISYSMOD}/Connectors.pretty)(options "")(descr "Assorted connector footprints"))
  (lib (name Converters_DCDC_ACDC)(type KiCad)(uri ${KISYSMOD}/Converters_DCDC_ACDC.pretty)(options "")(descr "DC-DC and AC-DC convertor modules"))
  (lib (name Crystals)(type KiCad)(uri ${KISYSMOD}/Crystals.pretty)(options "")(descr "Crystals and oscillators"))
  (lib (name Diodes_SMD)(type KiCad)(uri ${KISYSMOD}/Diodes_SMD.pretty)(options "")(descr "Diodes, surface mount"))
  (lib (name Diodes_THT)(type KiCad)(uri ${KISYSMOD}/Diodes_THT.pretty)(options "")(descr "Diodes, through hole"))
  (lib (name Discret)(type KiCad)(uri ${KISYSMOD}/Discret.pretty)(options "")(descr "Deprecated - will be removed"))
  (lib (name Displays_7-Segment)(type KiCad)(uri ${KISYSMOD}/Displays_7-Segment.pretty)(options "")(descr "Seven segment displays"))
  (lib (name Displays)(type KiCad)(uri ${KISYSMOD}/Displays.pretty)(options "")(descr "Display modules"))
  (lib (name Divers)(type KiCad)(uri ${KISYSMOD}/Divers.pretty)(options "")(descr "Deprecated - will be removed"))
  (lib (name Enclosures)(type KiCad)(uri ${KISYSMOD}/Enclosures.pretty)(options "")(descr "Electronics enclosures and housings"))
  (lib (name EuroBoard_Outline)(type KiCad)(uri ${KISYSMOD}/EuroBoard_Outline.pretty)(options "")(descr "Deprecated - will be removed"))
  (lib (name Fiducials)(type KiCad)(uri ${KISYSMOD}/Fiducials.pretty)(options "")(descr "Fiducial markings"))
  (lib (name Filters_HF_Coils_NEOSID)(type KiCad)(uri ${KISYSMOD}/Filters_HF_Coils_NEOSID.pretty)(options "")(descr "Deprecated - will be removed"))
  (lib (name Fuse_Holders_and_Fuses)(type KiCad)(uri ${KISYSMOD}/Fuse_Holders_and_Fuses.pretty)(options "")(descr "Fuses and fuse holders"))
  (lib (name Hall-Effect_Transducers_LEM)(type KiCad)(uri ${KISYSMOD}/Hall-Effect_Transducers_LEM.pretty)(options "")(descr "LEM hall effect transducers"))
  (lib (name Heatsinks)(type KiCad)(uri ${KISYSMOD}/Heatsinks.pretty)(options "")(descr "Heatsinks and thermal products"))
  (lib (name Housings_BGA)(type KiCad)(uri ${KISYSMOD}/Housings_BGA.pretty)(options "")(descr "Ball Grid Array (BGA)"))
  (lib (name Housings_CSP)(type KiCad)(uri ${KISYSMOD}/Housings_CSP.pretty)(options "")(descr "Chip Scale Packages (CSP)"))
  (lib (name Housings_DFN_QFN)(type KiCad)(uri ${KISYSMOD}/Housings_DFN_QFN.pretty)(options "")(descr "Surface mount IC packages, DFN / LGA / QFN"))
  (lib (name Housings_DIP)(type KiCad)(uri ${KISYSMOD}/Housings_DIP.pretty)(options "")(descr "Through hole IC packages, DIP"))
  (lib (name Housings_LCC)(type KiCad)(uri ${KISYSMOD}/Housings_LCC.pretty)(options "")(descr "Leaded Chip Carriers (LCC)"))
  (lib (name Housings_LGA)(type KiCad)(uri ${KISYSMOD}/Housings_LGA.pretty)(options "")(descr "Land Grid Array (LGA)"))
  (lib (name Housings_PGA)(type KiCad)(uri ${KISYSMOD}/Housings_PGA.pretty)(options "")(descr "Pin Grid Array (PGA)"))
  (lib (name Housings_QFP)(type KiCad)(uri ${KISYSMOD}/Housings_QFP.pretty)(options "")(descr "Quad Flat Package (QFP)"))
  (lib (name Housings_SIP)(type KiCad)(uri ${KISYSMOD}/Housings_SIP.pretty)(options "")(descr "Single Inline Package(SIP)"))
  (lib (name Housings_SOIC)(type KiCad)(uri ${KISYSMOD}/Housings_SOIC.pretty)(options "")(descr "Small Outline Integrated Circuits (SOIC)"))
  (lib (name Housings_SON)(type KiCad)(uri ${KISYSMOD}/Housings_SON.pretty)(options "")(descr "Small Outline No-Lead (SON)"))
  (lib (name Housings_SSOP)(type KiCad)(uri ${KISYSMOD}/Housings_SSOP.pretty)(options "")(descr "SSOP, TSSOP, MSOP, QSOP, VSO packages"))
  (lib (name Inductors_NEOSID)(type KiCad)(uri ${KISYSMOD}/Inductors_NEOSID.pretty)(options "")(descr "Deprecated - will be removed"))
  (lib (name Inductors)(type KiCad)(uri ${KISYSMOD}/Inductors.pretty)(options "")(descr "Deprecated - will be removed"))
  (lib (name Inductors_SMD)(type KiCad)(uri ${KISYSMOD}/Inductors_SMD.pretty)(options "")(descr "Inductors, surface mount"))
  (lib (name Inductors_THT)(type KiCad)(uri ${KISYSMOD}/Inductors_THT.pretty)(options "")(descr "Inductors, through hole"))
  (lib (name IR-DirectFETs)(type KiCad)(uri ${KISYSMOD}/IR-DirectFETs.pretty)(options "")(descr "DirectFet packets from International Rectifier"))
  (lib (name Labels)(type KiCad)(uri ${KISYSMOD}/Labels.pretty)(options "")(descr "Deprecated - will be removed"))
  (lib (name LEDs)(type KiCad)(uri ${KISYSMOD}/LEDs.pretty)(options "")(descr "Light emitting diodes (LEDs)"))
  (lib (name Measurement_Points)(type KiCad)(uri ${KISYSMOD}/Measurement_Points.pretty)(options "")(descr "Terminals for test equipment"))
  (lib (name Measurement_Scales)(type KiCad)(uri ${KISYSMOD}/Measurement_Scales.pretty)(options "")(descr "Measurement scales and gauges"))
  (lib (name Mechanical_Sockets)(type KiCad)(uri ${KISYSMOD}/Mechanical_Sockets.pretty)(options "")(descr "Sockets for board to board connection"))
  (lib (name Microwave)(type KiCad)(uri ${KISYSMOD}/Microwave.pretty)(options "")(descr "Microwave"))
  (lib (name Modules)(type KiCad)(uri ${KISYSMOD}/Modules.pretty)(options "")(descr "Board-level devices integrating system functionality into a single module"))
  (lib (name Mounting_Holes)(type KiCad)(uri ${KISYSMOD}/Mounting_Holes.pretty)(options "")(descr "Mechanical fasteners"))
  (lib (name NF-Transformers_ETAL)(type KiCad)(uri ${KISYSMOD}/NF-Transformers_ETAL.pretty)(options "")(descr "Deprecated - will be deleted"))
  (lib (name Oddities)(type KiCad)(uri ${KISYSMOD}/Oddities.pretty)(options "")(descr "Assorted footprints. Deprecated - will be removed"))
  (lib (name Opto-Devices)(type KiCad)(uri ${KISYSMOD}/Opto-Devices.pretty)(options "")(descr "Optocouplers, light sensors, and other optical devices"))
  (lib (name Oscillators)(type KiCad)(uri ${KISYSMOD}/Oscillators.pretty)(options "")(descr "Precicision oscillator modules"))
  (lib (name PFF_PSF_PSS_Leadforms)(type KiCad)(uri ${KISYSMOD}/PFF_PSF_PSS_Leadforms.pretty)(options "")(descr "Allegro leadform packages"))
  (lib (name Pin_Headers)(type KiCad)(uri ${KISYSMOD}/Pin_Headers.pretty)(options "")(descr "Male pin headers"))
  (lib (name Potentiometers)(type KiCad)(uri ${KISYSMOD}/Potentiometers.pretty)(options "")(descr "Potentiometers / variable resistors"))
  (lib (name Power_Integrations)(type KiCad)(uri ${KISYSMOD}/Power_Integrations.pretty)(options "")(descr "Power Integrations footprints"))
  (lib (name Relays_SMD)(type KiCad)(uri ${KISYSMOD}/Relays_SMD.pretty)(options "")(descr "Surface mount relay packages"))
  (lib (name Relays_THT)(type KiCad)(uri ${KISYSMOD}/Relays_THT.pretty)(options "")(descr "Through hole relay packages"))
  (lib (name Resistors_SMD)(type KiCad)(uri ${KISYSMOD}/Resistors_SMD.pretty)(options "")(descr "Resistors, surface mount"))
  (lib (name Resistors_THT)(type KiCad)(uri ${KISYSMOD}/Resistors_THT.pretty)(options "")(descr "Resistors, through hole"))
  (lib (name Resistors_Universal)(type KiCad)(uri ${KISYSMOD}/Resistors_Universal.pretty)(options "")(descr Experimental))
  (lib (name RF_Modules)(type KiCad)(uri ${KISYSMOD}/RF_Modules.pretty)(options "")(descr "Radio-frequency / wireless modules"))
  (lib (name Shielding_Cabinets)(type KiCad)(uri ${KISYSMOD}/Shielding_Cabinets.pretty)(options "")(descr "RF / EMI shields"))
  (lib (name SMD_Packages)(type KiCad)(uri ${KISYSMOD}/SMD_Packages.pretty)(options "")(descr "Various SMD packages. Read only - footprints will be moved to other libraries"))
  (lib (name Sockets_MOLEX_KK-System)(type KiCad)(uri ${KISYSMOD}/Sockets_MOLEX_KK-System.pretty)(options "")(descr "Deprecated - will be removed"))
  (lib (name Socket_Strips)(type KiCad)(uri ${KISYSMOD}/Socket_Strips.pretty)(options "")(descr "Female socket strips"))
  (lib (name Sockets)(type KiCad)(uri ${KISYSMOD}/Sockets.pretty)(options "")(descr "IC sockets"))
  (lib (name Symbols)(type KiCad)(uri ${KISYSMOD}/Symbols.pretty)(options "")(descr "PCB symbols"))
  (lib (name TerminalBlocks_Phoenix)(type KiCad)(uri ${KISYSMOD}/TerminalBlocks_Phoenix.pretty)(options "")(descr "Phoenix Contact terminal blocks"))
  (lib (name TerminalBlocks_WAGO)(type KiCad)(uri ${KISYSMOD}/TerminalBlocks_WAGO.pretty)(options "")(descr "WAGO terminal blocks"))
  (lib (name TO_SOT_Packages_SMD)(type KiCad)(uri ${KISYSMOD}/TO_SOT_Packages_SMD.pretty)(options "")(descr "Surface mount transistor packages"))
  (lib (name TO_SOT_Packages_THT)(type KiCad)(uri ${KISYSMOD}/TO_SOT_Packages_THT.pretty)(options "")(descr "Through hole transistor packages"))
  (lib (name Transformers_CHK)(type KiCad)(uri ${KISYSMOD}/Transformers_CHK.pretty)(options "")(descr "Deprecated - will be removed"))
  (lib (name Transformers_SMD)(type KiCad)(uri ${KISYSMOD}/Transformers_SMD.pretty)(options "")(descr "Surface mount transformers"))
  (lib (name Transformers_SMPS_ThroughHole)(type KiCad)(uri ${KISYSMOD}/Transformers_SMPS_ThroughHole.pretty)(options "")(descr "Deprecated - will be removed"))
  (lib (name Transformers_THT)(type KiCad)(uri ${KISYSMOD}/Transformers_THT.pretty)(options "")(descr "Through hole transformers"))
  (lib (name Transistors_OldSowjetAera)(type KiCad)(uri ${KISYSMOD}/Transistors_OldSowjetAera.pretty)(options "")(descr "Sowjet transistors"))
  (lib (name Valves)(type KiCad)(uri ${KISYSMOD}/Valves.pretty)(options "")(descr "Valves"))
  (lib (name Varistors)(type KiCad)(uri ${KISYSMOD}/Varistors.pretty)(options "")(descr "Varistors"))
  (lib (name Wire_Connections_Bridges)(type KiCad)(uri ${KISYSMOD}/Wire_Connections_Bridges.pretty)(options "")(descr "PCB bridging points"))
  (lib (name Wire_Pads)(type KiCad)(uri ${KISYSMOD}/Wire_Pads.pretty)(options "")(descr "Direct wire-to-board connection points"))
)
