(module EuroBoard_Type-II_100mmX100mm_holes (layer F.Cu) (tedit 59A4247C)
  (descr "Outline, Eurocard 1/2, Type I, 100x80mm, with holes 3,5mm")
  (tags "Outline, Eurocard 1/2, Type I, 100x80mm, with holes 3,5mm")
  (fp_text reference REF** (at 2.286 -81.407) (layer F.SilkS)
    (effects (font (size 1 1) (thickness 0.15)))
  )
  (fp_text value EuroBoard_Type-II_100mmX100mm_holes (at 64.262 1.27) (layer F.Fab)
    (effects (font (size 1 1) (thickness 0.15)))
  )
  (fp_line (start 80.01 0) (end 0.01016 0) (layer Edge.Cuts) (width 0.381))
  (fp_line (start 80.01 -80.01) (end 0.01016 -80.01) (layer Edge.Cuts) (width 0.381))
  (fp_line (start 0 0) (end 0 -79.99984) (layer Edge.Cuts) (width 0.381))
  (fp_line (start 80.0608 -79.99984) (end 80.0608 0) (layer Edge.Cuts) (width 0.381))
  (pad "" np_thru_hole circle (at 5.00126 -5.00126) (size 3.50012 3.50012) (drill 3.50012) (layers *.Cu *.Mask F.SilkS))
  (pad "" np_thru_hole circle (at 5.00126 -75.00112) (size 3.50012 3.50012) (drill 3.50012) (layers *.Cu *.Mask F.SilkS))
  (pad "" np_thru_hole circle (at 75.06208 -75.00112) (size 3.50012 3.50012) (drill 3.50012) (layers *.Cu *.Mask F.SilkS))
  (pad "" np_thru_hole circle (at 75.06208 -5.00126) (size 3.50012 3.50012) (drill 3.50012) (layers *.Cu *.Mask F.SilkS))
)
