(module R_Axial_DIN0207_L6.3mm_D2.5mm_P15.24mm_Horizontal_1.2mm_drill (layer F.Cu) (tedit 59DB70A5)
  (descr "Resistor, Axial_DIN0207 series, Axial, Horizontal, pin pitch=15.24mm, 0.25W = 1/4W, length*diameter=6.3*2.5mm^2, http://cdn-reichelt.de/documents/datenblatt/B400/1_4W%23YAG.pdf")
  (tags "Resistor Axial_DIN0207 series Axial Horizontal pin pitch 15.24mm 0.25W = 1/4W length 6.3mm diameter 2.5mm")
  (fp_text reference REF** (at 7.62 -2.31) (layer F.SilkS)
    (effects (font (size 1 1) (thickness 0.15)))
  )
  (fp_text value R_Axial_DIN0207_L6.3mm_D2.5mm_P15.24mm_Horizontal (at 7.62 2.31) (layer F.Fab)
    (effects (font (size 1 1) (thickness 0.15)))
  )
  (fp_line (start 4.47 -1.25) (end 4.47 1.25) (layer F.Fab) (width 0.1))
  (fp_line (start 4.47 1.25) (end 10.77 1.25) (layer F.Fab) (width 0.1))
  (fp_line (start 10.77 1.25) (end 10.77 -1.25) (layer F.Fab) (width 0.1))
  (fp_line (start 10.77 -1.25) (end 4.47 -1.25) (layer F.Fab) (width 0.1))
  (fp_line (start 0 0) (end 4.47 0) (layer F.Fab) (width 0.1))
  (fp_line (start 15.24 0) (end 10.77 0) (layer F.Fab) (width 0.1))
  (fp_line (start 4.41 -1.31) (end 4.41 1.31) (layer F.SilkS) (width 0.12))
  (fp_line (start 4.41 1.31) (end 10.83 1.31) (layer F.SilkS) (width 0.12))
  (fp_line (start 10.83 1.31) (end 10.83 -1.31) (layer F.SilkS) (width 0.12))
  (fp_line (start 10.83 -1.31) (end 4.41 -1.31) (layer F.SilkS) (width 0.12))
  (fp_line (start 0.98 0) (end 4.41 0) (layer F.SilkS) (width 0.12))
  (fp_line (start 14.26 0) (end 10.83 0) (layer F.SilkS) (width 0.12))
  (fp_line (start -1.05 -1.6) (end -1.05 1.6) (layer F.CrtYd) (width 0.05))
  (fp_line (start -1.05 1.6) (end 16.3 1.6) (layer F.CrtYd) (width 0.05))
  (fp_line (start 16.3 1.6) (end 16.3 -1.6) (layer F.CrtYd) (width 0.05))
  (fp_line (start 16.3 -1.6) (end -1.05 -1.6) (layer F.CrtYd) (width 0.05))
  (pad e thru_hole circle (at 0 0) (size 2.2 2.2) (drill 1.2) (layers *.Cu *.Mask))
  (pad 2 thru_hole oval (at 15.24 0) (size 2.2 2.2) (drill 1.2) (layers *.Cu *.Mask))
  (model ${KISYS3DMOD}/Resistors_THT.3dshapes/R_Axial_DIN0207_L6.3mm_D2.5mm_P15.24mm_Horizontal.wrl
    (at (xyz 0 0 0))
    (scale (xyz 0.393701 0.393701 0.393701))
    (rotate (xyz 0 0 0))
  )
)
