<?xml version="1.0" encoding="UTF-8" standalone="no"?>
<!-- Created with Inkscape (http://www.inkscape.org/) -->

<svg
   xmlns:dc="http://purl.org/dc/elements/1.1/"
   xmlns:cc="http://creativecommons.org/ns#"
   xmlns:rdf="http://www.w3.org/1999/02/22-rdf-syntax-ns#"
   xmlns:svg="http://www.w3.org/2000/svg"
   xmlns="http://www.w3.org/2000/svg"
   xmlns:sodipodi="http://sodipodi.sourceforge.net/DTD/sodipodi-0.dtd"
   xmlns:inkscape="http://www.inkscape.org/namespaces/inkscape"
   width="210mm"
   height="297mm"
   viewBox="0 0 744.09448819 1052.3622047"
   id="svg2"
   version="1.1"
   inkscape:version="0.91 r13725"
   sodipodi:docname="idee_jumper.svg">
  <defs
     id="defs4" />
  <sodipodi:namedview
     id="base"
     pagecolor="#ffffff"
     bordercolor="#666666"
     borderopacity="1.0"
     inkscape:pageopacity="0.0"
     inkscape:pageshadow="2"
     inkscape:zoom="0.98994949"
     inkscape:cx="220.89709"
     inkscape:cy="508.70725"
     inkscape:document-units="px"
     inkscape:current-layer="layer1"
     showgrid="false"
     inkscape:window-width="1360"
     inkscape:window-height="744"
     inkscape:window-x="0"
     inkscape:window-y="24"
     inkscape:window-maximized="1" />
  <metadata
     id="metadata7">
    <rdf:RDF>
      <cc:Work
         rdf:about="">
        <dc:format>image/svg+xml</dc:format>
        <dc:type
           rdf:resource="http://purl.org/dc/dcmitype/StillImage" />
        <dc:title></dc:title>
      </cc:Work>
    </rdf:RDF>
  </metadata>
  <g
     inkscape:label="Layer 1"
     inkscape:groupmode="layer"
     id="layer1">
    <g
       id="g3547"
       inkscape:export-xdpi="90"
       inkscape:export-ydpi="90">
      <path
         sodipodi:nodetypes="cc"
         style="color:#000000;clip-rule:nonzero;display:inline;overflow:visible;visibility:visible;opacity:1;isolation:auto;mix-blend-mode:normal;color-interpolation:sRGB;color-interpolation-filters:linearRGB;solid-color:#000000;solid-opacity:1;fill:none;fill-opacity:1;fill-rule:evenodd;stroke:#0000ff;stroke-width:6;stroke-linecap:butt;stroke-linejoin:miter;stroke-miterlimit:4;stroke-dasharray:none;stroke-dashoffset:0;stroke-opacity:1;color-rendering:auto;image-rendering:auto;shape-rendering:auto;text-rendering:auto;enable-background:accumulate"
         d="m 553.6327,533.00506 -182.14286,0"
         id="path3521"
         inkscape:connector-curvature="0" />
      <path
         sodipodi:nodetypes="cc"
         inkscape:connector-curvature="0"
         id="path3519"
         d="m 554.13778,593.00506 -122.14286,0"
         style="color:#000000;clip-rule:nonzero;display:inline;overflow:visible;visibility:visible;opacity:1;isolation:auto;mix-blend-mode:normal;color-interpolation:sRGB;color-interpolation-filters:linearRGB;solid-color:#000000;solid-opacity:1;fill:none;fill-opacity:1;fill-rule:evenodd;stroke:#ff0000;stroke-width:6;stroke-linecap:butt;stroke-linejoin:miter;stroke-miterlimit:4;stroke-dasharray:none;stroke-dashoffset:0;stroke-opacity:1;color-rendering:auto;image-rendering:auto;shape-rendering:auto;text-rendering:auto;enable-background:accumulate" />
      <path
         inkscape:connector-curvature="0"
         id="path3338"
         d="m 67.142857,413.79078 190.000003,0 89.28571,0"
         style="color:#000000;clip-rule:nonzero;display:inline;overflow:visible;visibility:visible;opacity:1;isolation:auto;mix-blend-mode:normal;color-interpolation:sRGB;color-interpolation-filters:linearRGB;solid-color:#000000;solid-opacity:1;fill:#0000ff;fill-opacity:1;fill-rule:evenodd;stroke:#0000ff;stroke-width:6;stroke-linecap:butt;stroke-linejoin:miter;stroke-miterlimit:4;stroke-dasharray:none;stroke-dashoffset:0;stroke-opacity:1;color-rendering:auto;image-rendering:auto;shape-rendering:auto;text-rendering:auto;enable-background:accumulate" />
      <text
         sodipodi:linespacing="125%"
         id="text3348"
         y="402.93362"
         x="87.428574"
         style="font-style:normal;font-weight:normal;font-size:40px;line-height:125%;font-family:sans-serif;letter-spacing:0px;word-spacing:0px;fill:#0000ff;fill-opacity:1;stroke:#0000ff;stroke-width:1px;stroke-linecap:butt;stroke-linejoin:miter;stroke-opacity:1"
         xml:space="preserve"><tspan
           y="402.93362"
           x="87.428574"
           id="tspan3350"
           sodipodi:role="line">PWM1H</tspan></text>
      <path
         style="color:#000000;clip-rule:nonzero;display:inline;overflow:visible;visibility:visible;opacity:1;isolation:auto;mix-blend-mode:normal;color-interpolation:sRGB;color-interpolation-filters:linearRGB;solid-color:#000000;solid-opacity:1;fill:#ff0000;fill-opacity:1;fill-rule:evenodd;stroke:#ff0000;stroke-width:6;stroke-linecap:butt;stroke-linejoin:miter;stroke-miterlimit:4;stroke-dasharray:none;stroke-dashoffset:0;stroke-opacity:1;color-rendering:auto;image-rendering:auto;shape-rendering:auto;text-rendering:auto;enable-background:accumulate"
         d="m 67.142857,473.79078 190.000003,0 153.98923,0"
         id="path3340"
         inkscape:connector-curvature="0" />
      <text
         xml:space="preserve"
         style="font-style:normal;font-weight:normal;font-size:40px;line-height:125%;font-family:sans-serif;letter-spacing:0px;word-spacing:0px;fill:#ff0000;fill-opacity:1;stroke:#ff0000;stroke-width:1px;stroke-linecap:butt;stroke-linejoin:miter;stroke-opacity:1"
         x="87.428574"
         y="462.93362"
         id="text3352"
         sodipodi:linespacing="125%"><tspan
           sodipodi:role="line"
           id="tspan3354"
           x="87.428574"
           y="462.93362">PWM1L</tspan></text>
      <path
         inkscape:connector-curvature="0"
         id="path3342"
         d="m 67.142857,533.79078 190.000003,0 86.42857,0"
         style="color:#000000;clip-rule:nonzero;display:inline;overflow:visible;visibility:visible;opacity:1;isolation:auto;mix-blend-mode:normal;color-interpolation:sRGB;color-interpolation-filters:linearRGB;solid-color:#000000;solid-opacity:1;fill:#0000ff;fill-opacity:1;fill-rule:evenodd;stroke:#0000ff;stroke-width:6;stroke-linecap:butt;stroke-linejoin:miter;stroke-miterlimit:4;stroke-dasharray:none;stroke-dashoffset:0;stroke-opacity:1;color-rendering:auto;image-rendering:auto;shape-rendering:auto;text-rendering:auto;enable-background:accumulate" />
      <g
         id="g3384"
         style="fill:#0000ff;stroke:#0000ff">
        <text
           xml:space="preserve"
           style="font-style:normal;font-weight:normal;font-size:40px;line-height:125%;font-family:sans-serif;letter-spacing:0px;word-spacing:0px;fill:#0000ff;fill-opacity:1;stroke:#0000ff;stroke-width:1px;stroke-linecap:butt;stroke-linejoin:miter;stroke-opacity:1"
           x="87.428574"
           y="522.93359"
           id="text3356"
           sodipodi:linespacing="125%"><tspan
             sodipodi:role="line"
             id="tspan3358"
             x="87.428574"
             y="522.93359">PWM2H</tspan></text>
      </g>
      <path
         style="color:#000000;clip-rule:nonzero;display:inline;overflow:visible;visibility:visible;opacity:1;isolation:auto;mix-blend-mode:normal;color-interpolation:sRGB;color-interpolation-filters:linearRGB;solid-color:#000000;solid-opacity:1;fill:#ff0000;fill-opacity:1;fill-rule:evenodd;stroke:#ff0000;stroke-width:6;stroke-linecap:butt;stroke-linejoin:miter;stroke-miterlimit:4;stroke-dasharray:none;stroke-dashoffset:0;stroke-opacity:1;color-rendering:auto;image-rendering:auto;shape-rendering:auto;text-rendering:auto;enable-background:accumulate"
         d="m 67.142857,593.79078 190.000003,0 150.95877,0"
         id="path3344"
         inkscape:connector-curvature="0" />
      <text
         xml:space="preserve"
         style="font-style:normal;font-weight:normal;font-size:40px;line-height:125%;font-family:sans-serif;letter-spacing:0px;word-spacing:0px;fill:#ff0000;fill-opacity:1;stroke:#ff0000;stroke-width:1px;stroke-linecap:butt;stroke-linejoin:miter;stroke-opacity:1"
         x="87.428574"
         y="582.93359"
         id="text3360"
         sodipodi:linespacing="125%"><tspan
           sodipodi:role="line"
           id="tspan3362"
           x="87.428574"
           y="582.93359">PWM2L</tspan></text>
      <path
         inkscape:connector-curvature="0"
         id="path3346"
         d="m 67.142857,653.79078 190.000003,0 84.28571,0"
         style="color:#000000;clip-rule:nonzero;display:inline;overflow:visible;visibility:visible;opacity:1;isolation:auto;mix-blend-mode:normal;color-interpolation:sRGB;color-interpolation-filters:linearRGB;solid-color:#000000;solid-opacity:1;fill:#0000ff;fill-opacity:1;fill-rule:evenodd;stroke:#0000ff;stroke-width:6;stroke-linecap:butt;stroke-linejoin:miter;stroke-miterlimit:4;stroke-dasharray:none;stroke-dashoffset:0;stroke-opacity:1;color-rendering:auto;image-rendering:auto;shape-rendering:auto;text-rendering:auto;enable-background:accumulate" />
      <text
         sodipodi:linespacing="125%"
         id="text3364"
         y="642.93359"
         x="87.428574"
         style="font-style:normal;font-weight:normal;font-size:40px;line-height:125%;font-family:sans-serif;letter-spacing:0px;word-spacing:0px;fill:#0000ff;fill-opacity:1;stroke:#0000ff;stroke-width:1px;stroke-linecap:butt;stroke-linejoin:miter;stroke-opacity:1"
         xml:space="preserve"><tspan
           y="642.93359"
           x="87.428574"
           id="tspan3366"
           sodipodi:role="line">PWM3H</tspan></text>
      <path
         style="color:#000000;clip-rule:nonzero;display:inline;overflow:visible;visibility:visible;opacity:1;isolation:auto;mix-blend-mode:normal;color-interpolation:sRGB;color-interpolation-filters:linearRGB;solid-color:#000000;solid-opacity:1;fill:#ff0000;fill-opacity:1;fill-rule:evenodd;stroke:#ff0000;stroke-width:6;stroke-linecap:butt;stroke-linejoin:miter;stroke-miterlimit:4;stroke-dasharray:none;stroke-dashoffset:0;stroke-opacity:1;color-rendering:auto;image-rendering:auto;shape-rendering:auto;text-rendering:auto;enable-background:accumulate"
         d="m 67.142857,713.79078 190.000003,0 148.93846,0"
         id="path3368"
         inkscape:connector-curvature="0" />
      <text
         xml:space="preserve"
         style="font-style:normal;font-weight:normal;font-size:40px;line-height:125%;font-family:sans-serif;letter-spacing:0px;word-spacing:0px;fill:#ff0000;fill-opacity:1;stroke:#ff0000;stroke-width:1px;stroke-linecap:butt;stroke-linejoin:miter;stroke-opacity:1"
         x="87.428574"
         y="702.93359"
         id="text3370"
         sodipodi:linespacing="125%"><tspan
           sodipodi:role="line"
           id="tspan3372"
           x="87.428574"
           y="702.93359">PWM3L</tspan></text>
      <path
         inkscape:connector-curvature="0"
         id="path3419"
         d="m 374.56127,415.93363 0,242.14286"
         style="color:#000000;clip-rule:nonzero;display:inline;overflow:visible;visibility:visible;opacity:1;isolation:auto;mix-blend-mode:normal;color-interpolation:sRGB;color-interpolation-filters:linearRGB;solid-color:#000000;solid-opacity:1;fill:none;fill-opacity:1;fill-rule:evenodd;stroke:#0000ff;stroke-width:6;stroke-linecap:butt;stroke-linejoin:miter;stroke-miterlimit:4;stroke-dasharray:none;stroke-dashoffset:0;stroke-opacity:1;color-rendering:auto;image-rendering:auto;shape-rendering:auto;text-rendering:auto;enable-background:accumulate" />
      <g
         id="g3463">
        <rect
           style="opacity:1;fill:#ffffff;fill-opacity:1;stroke:#000000;stroke-width:3;stroke-miterlimit:4;stroke-dasharray:none;stroke-dashoffset:0;stroke-opacity:1"
           id="rect3421"
           width="43.57143"
           height="22.857143"
           x="342.85715"
           y="401.64792" />
        <path
           style="opacity:1;fill:#000000;fill-opacity:1;stroke:#000000;stroke-width:3;stroke-miterlimit:4;stroke-dasharray:none;stroke-dashoffset:0;stroke-opacity:1"
           id="path3423"
           sodipodi:type="arc"
           sodipodi:cx="354.91071"
           sodipodi:cy="413.34433"
           sodipodi:rx="2.9464285"
           sodipodi:ry="2.9464285"
           sodipodi:start="0"
           sodipodi:end="6.2823475"
           sodipodi:open="true"
           d="m 357.85713,413.34433 a 2.9464285,2.9464285 0 0 1 -2.94581,2.94643 2.9464285,2.9464285 0 0 1 -2.94704,-2.9452 2.9464285,2.9464285 0 0 1 2.94457,-2.94766 2.9464285,2.9464285 0 0 1 2.94828,2.94396" />
        <path
           d="m 377.85713,413.34433 a 2.9464285,2.9464285 0 0 1 -2.94581,2.94643 2.9464285,2.9464285 0 0 1 -2.94704,-2.9452 2.9464285,2.9464285 0 0 1 2.94457,-2.94766 2.9464285,2.9464285 0 0 1 2.94828,2.94396"
           sodipodi:open="true"
           sodipodi:end="6.2823475"
           sodipodi:start="0"
           sodipodi:ry="2.9464285"
           sodipodi:rx="2.9464285"
           sodipodi:cy="413.34433"
           sodipodi:cx="374.91071"
           sodipodi:type="arc"
           id="path3425"
           style="opacity:1;fill:#000000;fill-opacity:1;stroke:#000000;stroke-width:3;stroke-miterlimit:4;stroke-dasharray:none;stroke-dashoffset:0;stroke-opacity:1" />
      </g>
      <g
         id="g3457">
        <rect
           y="521.64795"
           x="342.85715"
           height="22.857143"
           width="43.57143"
           id="rect3427"
           style="opacity:1;fill:#ffffff;fill-opacity:1;stroke:#000000;stroke-width:3;stroke-miterlimit:4;stroke-dasharray:none;stroke-dashoffset:0;stroke-opacity:1" />
        <g
           id="g3453">
          <path
             style="opacity:1;fill:#000000;fill-opacity:1;stroke:#000000;stroke-width:3;stroke-miterlimit:4;stroke-dasharray:none;stroke-dashoffset:0;stroke-opacity:1"
             id="path3429"
             sodipodi:type="arc"
             sodipodi:cx="354.91071"
             sodipodi:cy="533.34436"
             sodipodi:rx="2.9464285"
             sodipodi:ry="2.9464285"
             sodipodi:start="0"
             sodipodi:end="6.2823475"
             sodipodi:open="true"
             d="m 357.85713,533.34436 a 2.9464285,2.9464285 0 0 1 -2.94581,2.94643 2.9464285,2.9464285 0 0 1 -2.94704,-2.9452 2.9464285,2.9464285 0 0 1 2.94457,-2.94766 2.9464285,2.9464285 0 0 1 2.94828,2.94396" />
          <path
             d="m 377.85713,533.34436 a 2.9464285,2.9464285 0 0 1 -2.94581,2.94643 2.9464285,2.9464285 0 0 1 -2.94704,-2.9452 2.9464285,2.9464285 0 0 1 2.94457,-2.94766 2.9464285,2.9464285 0 0 1 2.94828,2.94396"
             sodipodi:open="true"
             sodipodi:end="6.2823475"
             sodipodi:start="0"
             sodipodi:ry="2.9464285"
             sodipodi:rx="2.9464285"
             sodipodi:cy="533.34436"
             sodipodi:cx="374.91071"
             sodipodi:type="arc"
             id="path3431"
             style="opacity:1;fill:#000000;fill-opacity:1;stroke:#000000;stroke-width:3;stroke-miterlimit:4;stroke-dasharray:none;stroke-dashoffset:0;stroke-opacity:1" />
        </g>
      </g>
      <g
         id="g3448">
        <rect
           style="opacity:1;fill:#ffffff;fill-opacity:1;stroke:#000000;stroke-width:3;stroke-miterlimit:4;stroke-dasharray:none;stroke-dashoffset:0;stroke-opacity:1"
           id="rect3433"
           width="43.57143"
           height="22.857143"
           x="342.85715"
           y="641.64795" />
        <path
           style="opacity:1;fill:#000000;fill-opacity:1;stroke:#000000;stroke-width:3;stroke-miterlimit:4;stroke-dasharray:none;stroke-dashoffset:0;stroke-opacity:1"
           id="path3435"
           sodipodi:type="arc"
           sodipodi:cx="354.91071"
           sodipodi:cy="653.34436"
           sodipodi:rx="2.9464285"
           sodipodi:ry="2.9464285"
           sodipodi:start="0"
           sodipodi:end="6.2823475"
           sodipodi:open="true"
           d="m 357.85713,653.34436 a 2.9464285,2.9464285 0 0 1 -2.94581,2.94643 2.9464285,2.9464285 0 0 1 -2.94704,-2.9452 2.9464285,2.9464285 0 0 1 2.94457,-2.94766 2.9464285,2.9464285 0 0 1 2.94828,2.94396" />
        <path
           d="m 377.85713,653.34436 a 2.9464285,2.9464285 0 0 1 -2.94581,2.94643 2.9464285,2.9464285 0 0 1 -2.94704,-2.9452 2.9464285,2.9464285 0 0 1 2.94457,-2.94766 2.9464285,2.9464285 0 0 1 2.94828,2.94396"
           sodipodi:open="true"
           sodipodi:end="6.2823475"
           sodipodi:start="0"
           sodipodi:ry="2.9464285"
           sodipodi:rx="2.9464285"
           sodipodi:cy="653.34436"
           sodipodi:cx="374.91071"
           sodipodi:type="arc"
           id="path3437"
           style="opacity:1;fill:#000000;fill-opacity:1;stroke:#000000;stroke-width:3;stroke-miterlimit:4;stroke-dasharray:none;stroke-dashoffset:0;stroke-opacity:1" />
      </g>
      <path
         style="color:#000000;clip-rule:nonzero;display:inline;overflow:visible;visibility:visible;opacity:1;isolation:auto;mix-blend-mode:normal;color-interpolation:sRGB;color-interpolation-filters:linearRGB;solid-color:#000000;solid-opacity:1;fill:none;fill-opacity:1;fill-rule:evenodd;stroke:#ff0000;stroke-width:6;stroke-linecap:butt;stroke-linejoin:miter;stroke-miterlimit:4;stroke-dasharray:none;stroke-dashoffset:0;stroke-opacity:1;color-rendering:auto;image-rendering:auto;shape-rendering:auto;text-rendering:auto;enable-background:accumulate"
         d="m 435.06635,475.93363 0,242.14286"
         id="path3468"
         inkscape:connector-curvature="0" />
      <g
         transform="translate(60,60)"
         id="g3470">
        <rect
           y="401.64792"
           x="342.85715"
           height="22.857143"
           width="43.57143"
           id="rect3472"
           style="opacity:1;fill:#ffffff;fill-opacity:1;stroke:#000000;stroke-width:3;stroke-miterlimit:4;stroke-dasharray:none;stroke-dashoffset:0;stroke-opacity:1" />
        <path
           d="m 357.85713,413.34433 a 2.9464285,2.9464285 0 0 1 -2.94581,2.94643 2.9464285,2.9464285 0 0 1 -2.94704,-2.9452 2.9464285,2.9464285 0 0 1 2.94457,-2.94766 2.9464285,2.9464285 0 0 1 2.94828,2.94396"
           sodipodi:open="true"
           sodipodi:end="6.2823475"
           sodipodi:start="0"
           sodipodi:ry="2.9464285"
           sodipodi:rx="2.9464285"
           sodipodi:cy="413.34433"
           sodipodi:cx="354.91071"
           sodipodi:type="arc"
           id="path3474"
           style="opacity:1;fill:#000000;fill-opacity:1;stroke:#000000;stroke-width:3;stroke-miterlimit:4;stroke-dasharray:none;stroke-dashoffset:0;stroke-opacity:1" />
        <path
           style="opacity:1;fill:#000000;fill-opacity:1;stroke:#000000;stroke-width:3;stroke-miterlimit:4;stroke-dasharray:none;stroke-dashoffset:0;stroke-opacity:1"
           id="path3476"
           sodipodi:type="arc"
           sodipodi:cx="374.91071"
           sodipodi:cy="413.34433"
           sodipodi:rx="2.9464285"
           sodipodi:ry="2.9464285"
           sodipodi:start="0"
           sodipodi:end="6.2823475"
           sodipodi:open="true"
           d="m 377.85713,413.34433 a 2.9464285,2.9464285 0 0 1 -2.94581,2.94643 2.9464285,2.9464285 0 0 1 -2.94704,-2.9452 2.9464285,2.9464285 0 0 1 2.94457,-2.94766 2.9464285,2.9464285 0 0 1 2.94828,2.94396" />
      </g>
      <g
         transform="translate(60,60)"
         id="g3478">
        <rect
           style="opacity:1;fill:#ffffff;fill-opacity:1;stroke:#000000;stroke-width:3;stroke-miterlimit:4;stroke-dasharray:none;stroke-dashoffset:0;stroke-opacity:1"
           id="rect3480"
           width="43.57143"
           height="22.857143"
           x="342.85715"
           y="521.64795" />
        <g
           id="g3482">
          <path
             d="m 357.85713,533.34436 a 2.9464285,2.9464285 0 0 1 -2.94581,2.94643 2.9464285,2.9464285 0 0 1 -2.94704,-2.9452 2.9464285,2.9464285 0 0 1 2.94457,-2.94766 2.9464285,2.9464285 0 0 1 2.94828,2.94396"
             sodipodi:open="true"
             sodipodi:end="6.2823475"
             sodipodi:start="0"
             sodipodi:ry="2.9464285"
             sodipodi:rx="2.9464285"
             sodipodi:cy="533.34436"
             sodipodi:cx="354.91071"
             sodipodi:type="arc"
             id="path3484"
             style="opacity:1;fill:#000000;fill-opacity:1;stroke:#000000;stroke-width:3;stroke-miterlimit:4;stroke-dasharray:none;stroke-dashoffset:0;stroke-opacity:1" />
          <path
             style="opacity:1;fill:#000000;fill-opacity:1;stroke:#000000;stroke-width:3;stroke-miterlimit:4;stroke-dasharray:none;stroke-dashoffset:0;stroke-opacity:1"
             id="path3486"
             sodipodi:type="arc"
             sodipodi:cx="374.91071"
             sodipodi:cy="533.34436"
             sodipodi:rx="2.9464285"
             sodipodi:ry="2.9464285"
             sodipodi:start="0"
             sodipodi:end="6.2823475"
             sodipodi:open="true"
             d="m 377.85713,533.34436 a 2.9464285,2.9464285 0 0 1 -2.94581,2.94643 2.9464285,2.9464285 0 0 1 -2.94704,-2.9452 2.9464285,2.9464285 0 0 1 2.94457,-2.94766 2.9464285,2.9464285 0 0 1 2.94828,2.94396" />
        </g>
      </g>
      <g
         transform="translate(60,60)"
         id="g3488">
        <rect
           y="641.64795"
           x="342.85715"
           height="22.857143"
           width="43.57143"
           id="rect3490"
           style="opacity:1;fill:#ffffff;fill-opacity:1;stroke:#000000;stroke-width:3;stroke-miterlimit:4;stroke-dasharray:none;stroke-dashoffset:0;stroke-opacity:1" />
        <path
           d="m 357.85713,653.34436 a 2.9464285,2.9464285 0 0 1 -2.94581,2.94643 2.9464285,2.9464285 0 0 1 -2.94704,-2.9452 2.9464285,2.9464285 0 0 1 2.94457,-2.94766 2.9464285,2.9464285 0 0 1 2.94828,2.94396"
           sodipodi:open="true"
           sodipodi:end="6.2823475"
           sodipodi:start="0"
           sodipodi:ry="2.9464285"
           sodipodi:rx="2.9464285"
           sodipodi:cy="653.34436"
           sodipodi:cx="354.91071"
           sodipodi:type="arc"
           id="path3492"
           style="opacity:1;fill:#000000;fill-opacity:1;stroke:#000000;stroke-width:3;stroke-miterlimit:4;stroke-dasharray:none;stroke-dashoffset:0;stroke-opacity:1" />
        <path
           style="opacity:1;fill:#000000;fill-opacity:1;stroke:#000000;stroke-width:3;stroke-miterlimit:4;stroke-dasharray:none;stroke-dashoffset:0;stroke-opacity:1"
           id="path3494"
           sodipodi:type="arc"
           sodipodi:cx="374.91071"
           sodipodi:cy="653.34436"
           sodipodi:rx="2.9464285"
           sodipodi:ry="2.9464285"
           sodipodi:start="0"
           sodipodi:end="6.2823475"
           sodipodi:open="true"
           d="m 377.85713,653.34436 a 2.9464285,2.9464285 0 0 1 -2.94581,2.94643 2.9464285,2.9464285 0 0 1 -2.94704,-2.9452 2.9464285,2.9464285 0 0 1 2.94457,-2.94766 2.9464285,2.9464285 0 0 1 2.94828,2.94396" />
      </g>
      <rect
         style="opacity:1;fill:#ffffff;fill-opacity:1;stroke:#000000;stroke-width:3;stroke-miterlimit:4;stroke-dasharray:none;stroke-dashoffset:0;stroke-opacity:1"
         id="rect3498"
         width="58.57143"
         height="113.92855"
         x="536.42859"
         y="507.50507" />
      <text
         transform="matrix(0,-1,1,0,0,0)"
         sodipodi:linespacing="125%"
         id="text3507"
         y="573.10162"
         x="-597.14941"
         style="font-style:normal;font-weight:normal;font-size:27.22067261px;line-height:125%;font-family:sans-serif;letter-spacing:0px;word-spacing:0px;fill:#000000;fill-opacity:1;stroke:none;stroke-width:1px;stroke-linecap:butt;stroke-linejoin:miter;stroke-opacity:1"
         xml:space="preserve"><tspan
           y="573.10162"
           x="-597.14941"
           id="tspan3509"
           sodipodi:role="line">Opto</tspan></text>
      <text
         sodipodi:linespacing="125%"
         id="text3523"
         y="395.34134"
         x="320.47366"
         style="font-style:normal;font-weight:normal;font-size:21.55093384px;line-height:125%;font-family:sans-serif;letter-spacing:0px;word-spacing:0px;fill:#000000;fill-opacity:1;stroke:none;stroke-width:1px;stroke-linecap:butt;stroke-linejoin:miter;stroke-opacity:1"
         xml:space="preserve"><tspan
           y="395.34134"
           x="320.47366"
           id="tspan3525"
           sodipodi:role="line">JMP1</tspan></text>
      <text
         xml:space="preserve"
         style="font-style:normal;font-weight:normal;font-size:21.55093384px;line-height:125%;font-family:sans-serif;letter-spacing:0px;word-spacing:0px;fill:#000000;fill-opacity:1;stroke:none;stroke-width:1px;stroke-linecap:butt;stroke-linejoin:miter;stroke-opacity:1"
         x="320.47366"
         y="515.34131"
         id="text3527"
         sodipodi:linespacing="125%"><tspan
           sodipodi:role="line"
           id="tspan3529"
           x="320.47366"
           y="515.34131">JMP3</tspan></text>
      <text
         sodipodi:linespacing="125%"
         id="text3531"
         y="635.34131"
         x="320.47366"
         style="font-style:normal;font-weight:normal;font-size:21.55093384px;line-height:125%;font-family:sans-serif;letter-spacing:0px;word-spacing:0px;fill:#000000;fill-opacity:1;stroke:none;stroke-width:1px;stroke-linecap:butt;stroke-linejoin:miter;stroke-opacity:1"
         xml:space="preserve"><tspan
           y="635.34131"
           x="320.47366"
           id="tspan3533"
           sodipodi:role="line">JMP5</tspan></text>
      <text
         xml:space="preserve"
         style="font-style:normal;font-weight:normal;font-size:21.55093384px;line-height:125%;font-family:sans-serif;letter-spacing:0px;word-spacing:0px;fill:#000000;fill-opacity:1;stroke:none;stroke-width:1px;stroke-linecap:butt;stroke-linejoin:miter;stroke-opacity:1"
         x="382.47366"
         y="455.34131"
         id="text3535"
         sodipodi:linespacing="125%"><tspan
           sodipodi:role="line"
           id="tspan3537"
           x="382.47366"
           y="455.34131">JMP2</tspan></text>
      <text
         sodipodi:linespacing="125%"
         id="text3539"
         y="575.34131"
         x="382.47366"
         style="font-style:normal;font-weight:normal;font-size:21.55093384px;line-height:125%;font-family:sans-serif;letter-spacing:0px;word-spacing:0px;fill:#000000;fill-opacity:1;stroke:none;stroke-width:1px;stroke-linecap:butt;stroke-linejoin:miter;stroke-opacity:1"
         xml:space="preserve"><tspan
           y="575.34131"
           x="382.47366"
           id="tspan3541"
           sodipodi:role="line">JMP4</tspan></text>
      <text
         xml:space="preserve"
         style="font-style:normal;font-weight:normal;font-size:21.55093384px;line-height:125%;font-family:sans-serif;letter-spacing:0px;word-spacing:0px;fill:#000000;fill-opacity:1;stroke:none;stroke-width:1px;stroke-linecap:butt;stroke-linejoin:miter;stroke-opacity:1"
         x="382.47366"
         y="695.34131"
         id="text3543"
         sodipodi:linespacing="125%"><tspan
           sodipodi:role="line"
           id="tspan3545"
           x="382.47366"
           y="695.34131">JMP6</tspan></text>
    </g>
  </g>
</svg>
